%YAML 1.1
%TAG !u! tag:unity3d.com,2011:
--- !u!114 &11400000
MonoBehaviour:
  m_ObjectHideFlags: 0
  m_CorrespondingSourceObject: {fileID: 0}
  m_PrefabInstance: {fileID: 0}
  m_PrefabAsset: {fileID: 0}
  m_GameObject: {fileID: 0}
  m_Enabled: 1
  m_EditorHideFlags: 0
  m_Script: {fileID: 42938266, guid: e743331561ef77147ae48cda9bcb8209, type: 3}
  m_Name: PlayMakerGlobals
  m_EditorClassIdentifier: 
  variables:
    floatVariables: []
    intVariables: []
    boolVariables:
    - useVariable: 1
      name: PlayerIsNear
      tooltip: 
      showInInspector: 0
      networkSync: 0
      value: 0
    - useVariable: 1
      name: isNear
      tooltip: 
      showInInspector: 0
      networkSync: 0
      value: 0
    stringVariables: []
    vector2Variables: []
    vector3Variables: []
    colorVariables: []
    rectVariables: []
    quaternionVariables: []
    gameObjectVariables:
    - useVariable: 1
      name: Bait
      tooltip: 
      showInInspector: 0
      networkSync: 0
      value: {fileID: 0}
    objectVariables: []
    materialVariables: []
    textureVariables: []
    arrayVariables: []
    enumVariables: []
    categories:
    - 
    variableCategoryIDs: 000000000000000000000000
  events:
  - CamChange
  - startFishing
  - DoneFishing
  - buyBoat1
  - buyBoat2
  - buyBoat3
  - S2FishOn
  - LostS2Fish
  - LostFish
  - Stage2FishOn
  - Stage1FishOn
  - Stage3FishOn
  - Stage4FishOn
  - Stage5FishOn
  - donateFish
  - SETVELOCITY
  - CastComplete
  - ReturnCamera
  - Move Pic Spawn
  - SwitchCamers
  - startNet
  - endNet
  - unlockMap
  - pullOutMap
  - mapAway
  - splash
  - MoveTo
  - FishEnter
  - SpawnNewPoint
  - PointReached
  - nessiePulling
  - startDriving
  - fish biting
  - BaitDetected
  - ExitButton
  - takeOutMap
  - takeOutBook
  - pullOutBook
  - bookAway
  - ButtonPRESSED
  - LoadingFinshed
  - Exit
  - goLeft
  - goRight
  - goDown
  - goUp
  - PRESSED
  - startWalking
  - netted
