%YAML 1.1
%TAG !u! tag:unity3d.com,2011:
--- !u!1 &3938085449741957822
GameObject:
  m_ObjectHideFlags: 0
  m_CorrespondingSourceObject: {fileID: 0}
  m_PrefabInstance: {fileID: 0}
  m_PrefabAsset: {fileID: 0}
  serializedVersion: 6
  m_Component:
  - component: {fileID: 5074393332431032517}
  m_Layer: 0
  m_Name: building 2
  m_TagString: Untagged
  m_Icon: {fileID: 0}
  m_NavMeshLayer: 0
  m_StaticEditorFlags: 0
  m_IsActive: 1
--- !u!4 &5074393332431032517
Transform:
  m_ObjectHideFlags: 0
  m_CorrespondingSourceObject: {fileID: 0}
  m_PrefabInstance: {fileID: 0}
  m_PrefabAsset: {fileID: 0}
  m_GameObject: {fileID: 3938085449741957822}
  m_LocalRotation: {x: 0, y: 0, z: 0, w: 1}
  m_LocalPosition: {x: -389.1197, y: 25.025278, z: -46.72784}
  m_LocalScale: {x: 1, y: 1, z: 1}
  m_Children:
  - {fileID: 1312915585224291492}
  m_Father: {fileID: 0}
  m_RootOrder: 0
  m_LocalEulerAnglesHint: {x: 0, y: 0, z: 0}
--- !u!1001 &6287831065935978430
PrefabInstance:
  m_ObjectHideFlags: 0
  serializedVersion: 2
  m_Modification:
    m_TransformParent: {fileID: 5074393332431032517}
    m_Modifications:
    - target: {fileID: -927199367670048503, guid: b2cf4df6f862f394781b9ea5a875dc22,
        type: 3}
      propertyPath: m_Name
      value: NPC building 1
      objectReference: {fileID: 0}
    - target: {fileID: -9029344830248854290, guid: b2cf4df6f862f394781b9ea5a875dc22,
        type: 3}
      propertyPath: m_Materials.Array.data[0]
      value: 
      objectReference: {fileID: 2100000, guid: 1f0832d450c87c84885d45a185da39ed, type: 2}
    - target: {fileID: -4216859302048453862, guid: b2cf4df6f862f394781b9ea5a875dc22,
        type: 3}
      propertyPath: m_LocalPosition.x
      value: 66.903015
      objectReference: {fileID: 0}
    - target: {fileID: -4216859302048453862, guid: b2cf4df6f862f394781b9ea5a875dc22,
        type: 3}
      propertyPath: m_LocalPosition.y
      value: -2.7252789
      objectReference: {fileID: 0}
    - target: {fileID: -4216859302048453862, guid: b2cf4df6f862f394781b9ea5a875dc22,
        type: 3}
      propertyPath: m_LocalPosition.z
      value: -24.432163
      objectReference: {fileID: 0}
    - target: {fileID: -4216859302048453862, guid: b2cf4df6f862f394781b9ea5a875dc22,
        type: 3}
      propertyPath: m_LocalRotation.x
      value: -0
      objectReference: {fileID: 0}
    - target: {fileID: -4216859302048453862, guid: b2cf4df6f862f394781b9ea5a875dc22,
        type: 3}
      propertyPath: m_LocalRotation.y
      value: 0.014412053
      objectReference: {fileID: 0}
    - target: {fileID: -4216859302048453862, guid: b2cf4df6f862f394781b9ea5a875dc22,
        type: 3}
      propertyPath: m_LocalRotation.z
      value: -0
      objectReference: {fileID: 0}
    - target: {fileID: -4216859302048453862, guid: b2cf4df6f862f394781b9ea5a875dc22,
        type: 3}
      propertyPath: m_LocalRotation.w
      value: 0.99989617
      objectReference: {fileID: 0}
    - target: {fileID: -4216859302048453862, guid: b2cf4df6f862f394781b9ea5a875dc22,
        type: 3}
      propertyPath: m_RootOrder
      value: 0
      objectReference: {fileID: 0}
    - target: {fileID: -4216859302048453862, guid: b2cf4df6f862f394781b9ea5a875dc22,
        type: 3}
      propertyPath: m_LocalEulerAnglesHint.x
      value: 0
      objectReference: {fileID: 0}
    - target: {fileID: -4216859302048453862, guid: b2cf4df6f862f394781b9ea5a875dc22,
        type: 3}
      propertyPath: m_LocalEulerAnglesHint.y
      value: 1.6520001
      objectReference: {fileID: 0}
    - target: {fileID: -4216859302048453862, guid: b2cf4df6f862f394781b9ea5a875dc22,
        type: 3}
      propertyPath: m_LocalEulerAnglesHint.z
      value: 0
      objectReference: {fileID: 0}
    - target: {fileID: -4216859302048453862, guid: b2cf4df6f862f394781b9ea5a875dc22,
        type: 3}
      propertyPath: m_LocalScale.x
      value: 0.081075035
      objectReference: {fileID: 0}
    - target: {fileID: -4216859302048453862, guid: b2cf4df6f862f394781b9ea5a875dc22,
        type: 3}
      propertyPath: m_LocalScale.y
      value: 0.04905
      objectReference: {fileID: 0}
    - target: {fileID: -4216859302048453862, guid: b2cf4df6f862f394781b9ea5a875dc22,
        type: 3}
      propertyPath: m_LocalScale.z
      value: 0.049050007
      objectReference: {fileID: 0}
    m_RemovedComponents: []
  m_SourcePrefab: {fileID: 100100000, guid: b2cf4df6f862f394781b9ea5a875dc22, type: 3}
--- !u!4 &1312915585224291492 stripped
Transform:
  m_CorrespondingSourceObject: {fileID: -4216859302048453862, guid: b2cf4df6f862f394781b9ea5a875dc22,
    type: 3}
  m_PrefabInstance: {fileID: 6287831065935978430}
  m_PrefabAsset: {fileID: 0}
