# 3ds Max Wavefront OBJ Exporter v0.97b - (c)2007 guruware
# File Created: 26.03.2020 10:55:59

mtllib trout body.mtl

#
# object fish_body006
#

v  1465.8438 -29.8112 290.7841
v  1465.8438 -31.3582 290.2282
v  1466.4861 -31.6881 290.2949
v  1466.4861 -30.1411 290.8897
v  1465.8438 -25.2113 290.7841
v  1466.4861 -24.9989 290.8897
v  1466.4861 -23.8784 290.2949
v  1465.8438 -24.0908 290.2282
v  1466.4861 -28.4926 291.1122
v  1465.8438 -28.3365 290.9932
v  1508.5231 -36.3609 284.4448
v  1508.5231 -32.6834 283.8621
v  1510.9248 -32.6165 283.7573
v  1510.9248 -35.9415 284.3516
v  1456.2141 -30.2614 288.2170
v  1456.2141 -31.2027 288.5536
v  1456.2141 -29.9009 288.4821
v  1456.2141 -29.5941 288.0072
v  1469.8185 -31.8528 286.7551
v  1471.0775 -32.4260 286.6305
v  1471.0775 -33.9729 287.7000
v  1469.8185 -33.3997 287.7674
v  1469.8185 -23.8972 291.4373
v  1471.0775 -23.7472 291.5591
v  1471.0775 -22.6267 290.7139
v  1469.8185 -22.7767 290.6411
v  1469.8185 -31.8528 291.4373
v  1471.0775 -32.4260 291.5591
v  1471.0775 -29.6436 291.8663
v  1469.8185 -29.3023 291.7292
v  1468.5709 -31.2120 286.9664
v  1468.5709 -28.9991 286.6977
v  1469.8185 -29.3023 286.4602
v  1475.1495 -34.2798 286.2276
v  1473.2212 -33.4019 286.4184
v  1473.2212 -30.2248 286.0817
v  1475.1495 -30.7476 285.8671
v  1478.3888 -34.7454 285.8933
v  1478.3888 -36.2924 287.3027
v  1475.1495 -35.8267 287.4819
v  1475.1495 -23.2622 291.9530
v  1478.3888 -23.0673 292.2770
v  1478.3888 -21.9468 291.1378
v  1475.1495 -22.1417 290.9492
v  1475.1495 -34.2798 291.9530
v  1478.3888 -34.7454 292.2770
v  1478.3888 -31.0015 292.6750
v  1475.1495 -30.7476 292.3099
v  1482.7354 -35.3703 285.4447
v  1478.3888 -31.0015 285.4915
v  1482.7354 -31.3422 284.9873
v  1483.3207 -35.4537 285.4220
v  1483.3207 -37.0007 287.0514
v  1482.7354 -36.9172 287.0622
v  1482.7354 -22.8058 292.7117
v  1483.3207 -22.7812 292.7344
v  1483.3207 -21.6607 291.4019
v  1482.7354 -21.6853 291.3908
v  1482.7354 -35.3703 292.7117
v  1483.3207 -35.4537 292.7344
v  1483.3207 -31.3910 293.1904
v  1482.7354 -31.3422 293.1649
v  1491.1766 -36.5738 285.1174
v  1487.6951 -36.0774 285.2524
v  1487.6951 -31.7557 284.7709
v  1491.1766 -32.0460 284.6190
v  1494.1198 -36.8932 285.0033
v  1494.1198 -38.4401 286.8525
v  1491.1766 -38.1208 286.9067
v  1491.1766 -22.4506 293.0390
v  1494.1198 -22.7157 293.1531
v  1494.1198 -21.5952 291.6071
v  1491.1766 -21.3301 291.5511
v  1491.1766 -36.5738 293.0390
v  1494.1198 -36.8932 293.1531
v  1494.1198 -32.3480 293.6617
v  1491.1766 -32.0460 293.5332
v  1496.0941 -37.1074 284.9267
v  1494.1198 -32.3480 284.4906
v  1496.0941 -32.5506 284.4044
v  1499.7656 -37.2559 284.6024
v  1499.7656 -38.8028 286.5666
v  1496.0941 -38.6544 286.8161
v  1496.0941 -22.8936 293.2297
v  1499.7656 -23.4128 293.3720
v  1499.7656 -22.2923 291.7143
v  1496.0941 -21.7731 291.6446
v  1496.0941 -37.1074 293.2297
v  1499.7656 -37.2559 293.1901
v  1499.7656 -32.8179 293.7690
v  1496.0941 -32.5506 293.7478
v  1499.7656 -32.8179 284.1051
v  1504.4950 -36.9845 284.6010
v  1504.4950 -38.5315 286.6614
v  1504.4950 -23.9661 293.5554
v  1504.4950 -22.8456 291.8042
v  1504.4950 -36.9845 293.5554
v  1504.4950 -32.8110 294.1144
v  1504.4950 -32.8110 284.0378
v  1508.5231 -37.9079 286.5872
v  1508.5231 -24.8897 293.7116
v  1508.5231 -23.7692 291.8807
v  1508.5231 -36.3609 293.7116
v  1508.8363 -36.0018 293.8480
v  1508.5231 -32.6834 294.2902
v  1513.3435 -35.5192 284.2578
v  1513.3435 -37.0661 286.4984
v  1510.9248 -37.4885 286.5429
v  1510.9248 -25.5701 293.8047
v  1510.9248 -24.4496 291.9263
v  1513.3435 -35.5192 293.8985
v  1513.3435 -32.5493 294.5005
v  1510.9248 -32.6165 294.3950
v  1510.9248 -35.9415 293.8047
v  1465.8438 -29.8112 287.4282
v  1465.8438 -31.3582 288.1457
v  1463.1276 -31.3318 288.3479
v  1463.1276 -29.7849 287.7769
v  1463.1276 -28.3102 290.6141
v  1463.1276 -29.7849 290.4477
v  1463.1276 -24.0644 290.0052
v  1463.1276 -25.1850 290.4477
v  1465.8438 -25.2113 287.4282
v  1465.8438 -26.5133 287.2168
v  1463.1276 -26.4869 287.6086
v  1463.1276 -25.1850 287.7769
v  1460.3651 -29.7581 288.1315
v  1460.3651 -31.3051 288.5536
v  1458.1090 -31.9926 288.5536
v  1458.1090 -30.4456 288.1315
v  1460.3651 -29.7581 290.1055
v  1460.3651 -28.2834 290.2285
v  1458.1090 -28.3912 290.2285
v  1458.1090 -30.4456 290.1055
v  1460.3651 -25.1582 290.1055
v  1460.3651 -24.0377 289.7785
v  1458.1090 -22.9168 289.7785
v  1458.1090 -24.0373 290.1055
v  1460.3651 -25.1582 288.1315
v  1460.3651 -26.4602 288.0072
v  1458.1090 -25.8511 288.0072
v  1458.1090 -24.0373 288.1315
v  1457.4510 -31.7183 288.5536
v  1457.4510 -30.3817 288.1612
v  1457.4510 -28.8089 290.2285
v  1457.4510 -30.3817 290.0758
v  1457.4510 -24.3840 289.7785
v  1457.4510 -25.3911 290.0879
v  1457.4510 -26.7958 288.0072
v  1457.4510 -25.3911 288.1492
v  1513.3435 -37.0661 291.9723
v  1516.5773 -36.8823 291.9723
v  1516.5773 -35.3354 293.8985
v  1513.3435 -32.5493 283.6518
v  1516.5773 -32.8464 283.6518
v  1516.5773 -35.3354 284.2578
v  1513.3435 -26.2553 284.2578
v  1513.3435 -25.1348 286.4984
v  1516.5773 -26.4513 286.4984
v  1516.5773 -27.5718 284.2578
v  1513.3435 -26.2553 293.8985
v  1513.3435 -28.8774 294.5005
v  1516.5773 -29.7692 294.5005
v  1516.5773 -27.5718 293.8985
v  1520.1475 -34.4239 284.9535
v  1520.1475 -36.1715 286.8776
v  1516.5773 -36.8823 286.4984
v  1520.1475 -29.0223 284.9535
v  1520.1475 -30.5512 284.4330
v  1516.5773 -29.7692 283.6518
v  1520.1475 -29.0223 293.2325
v  1520.1475 -27.7564 291.5783
v  1516.5773 -26.4513 291.9723
v  1520.2032 -34.3236 293.2325
v  1520.2032 -32.5919 293.7495
v  1516.5773 -32.8464 294.5005
v  1465.8438 -31.9798 288.8167
v  1466.4861 -31.6881 288.0846
v  1466.4861 -32.3097 288.8177
v  1469.8185 -22.3067 288.8227
v  1469.8185 -22.7767 287.7674
v  1468.5709 -23.1891 287.8861
v  1468.5709 -22.7192 288.8208
v  1475.1495 -21.6717 288.8255
v  1475.1495 -22.1417 287.4819
v  1473.2212 -22.3714 287.5851
v  1473.2212 -21.9014 288.8245
v  1482.7354 -37.5388 288.8240
v  1482.7354 -37.4628 289.1379
v  1479.0653 -37.1199 289.0388
v  1479.0653 -37.1297 288.8249
v  1482.7354 -21.2153 288.8240
v  1482.7354 -21.6853 287.0622
v  1478.3888 -21.9468 287.3027
v  1478.3888 -21.4768 288.8249
v  1491.1766 -20.8601 288.8219
v  1491.1766 -21.3301 286.9067
v  1487.6951 -21.4766 286.9709
v  1487.6951 -21.0066 288.8228
v  1496.0941 -39.2760 288.8207
v  1496.0941 -39.2000 289.1660
v  1494.1198 -38.9857 289.1618
v  1494.1198 -39.0617 288.8212
v  1496.0941 -21.3032 288.8207
v  1496.0941 -21.7731 286.8161
v  1494.1198 -21.5952 286.8525
v  1494.1198 -21.1253 288.8212
v  1499.7656 -39.4244 288.6379
v  1499.7656 -39.3484 288.9918
v  1499.7656 -21.8223 288.8198
v  1499.7656 -22.2923 286.7485
v  1504.4950 -39.1531 288.8186
v  1504.4950 -39.0771 289.1837
v  1504.4950 -22.3757 288.8186
v  1504.4950 -22.8456 286.6614
v  1508.5231 -38.5295 288.8177
v  1508.5231 -38.4535 289.1922
v  1508.5231 -23.2992 288.8177
v  1508.5231 -23.7692 286.5872
v  1513.3435 -37.6878 288.8165
v  1513.3435 -37.6117 289.2023
v  1510.9248 -38.0341 289.1972
v  1510.9248 -38.1101 288.8170
v  1513.3435 -24.6649 288.8165
v  1510.9248 -24.4496 286.5429
v  1510.9248 -23.9796 288.8170
v  1465.8438 -31.9713 288.9893
v  1463.1276 -31.9449 289.0535
v  1463.1276 -31.9535 288.9076
v  1465.8438 -23.6208 288.8167
v  1465.8438 -24.0908 288.1457
v  1463.1276 -24.0644 288.3479
v  1463.1276 -23.5945 288.8124
v  1460.3651 -31.9267 289.0001
v  1460.3651 -31.9182 289.1187
v  1458.1090 -32.6102 289.1267
v  1458.1090 -32.6187 289.0080
v  1460.3651 -23.5677 288.8081
v  1460.3651 -24.0377 288.5536
v  1458.1090 -22.9168 288.5536
v  1458.1090 -22.4469 289.0489
v  1457.4510 -24.3840 288.5536
v  1457.4510 -24.1299 289.0489
v  1516.5773 -37.5039 288.8165
v  1513.3435 -24.7223 289.2023
v  1516.5773 -26.0388 289.2023
v  1516.5773 -25.9813 288.8165
v  1520.0969 -36.8033 288.8202
v  1520.2032 -36.6876 289.1574
v  1516.5773 -37.4279 289.2023
v  1520.1475 -27.2255 288.8202
v  1520.1475 -27.7564 286.8776
v  1466.4861 -32.3012 288.9983
v  1469.8185 -22.3642 289.0450
v  1468.5709 -22.7766 289.0275
v  1468.5709 -23.1891 290.5115
v  1475.1495 -21.7292 289.0851
v  1473.2212 -21.9589 289.0706
v  1473.2212 -22.3714 290.8378
v  1482.7354 -21.2728 289.1379
v  1478.3888 -21.5343 289.1077
v  1491.1766 -20.9176 289.1556
v  1487.6951 -21.0641 289.1483
v  1487.6951 -21.4766 291.4850
v  1496.0941 -21.3606 289.1660
v  1494.1198 -21.1827 289.1618
v  1499.7656 -21.8798 289.1737
v  1504.4950 -22.4331 289.1837
v  1508.5231 -23.3567 289.1922
v  1513.3435 -25.1348 291.9723
v  1510.9248 -24.0371 289.1972
v  1465.8438 -23.6268 288.9893
v  1463.1276 -23.6005 288.9583
v  1460.3651 -23.5737 288.9268
v  1458.1090 -22.4529 289.1676
v  1457.4510 -24.1274 289.1676
v  1520.1475 -27.2904 289.1574
v  1456.2141 -31.2027 289.7785
v  1456.2141 -30.2614 290.0200
v  1456.2141 -29.5941 290.2285
v  1456.2141 -29.9009 289.8605
v  1475.1495 -35.8267 290.9492
v  1473.2212 -33.4019 291.7665
v  1473.2212 -34.9488 290.8378
v  1482.7354 -36.9172 291.3908
v  1478.3888 -36.2924 291.1378
v  1491.1766 -38.1208 291.5511
v  1487.6951 -36.0774 292.9040
v  1487.6951 -37.6244 291.4850
v  1496.0941 -38.6544 291.6446
v  1494.1198 -38.4401 291.6071
v  1499.7656 -38.8028 291.5324
v  1504.4950 -38.5315 291.8042
v  1508.5231 -37.9079 291.8807
v  1510.9248 -37.4885 291.9263
v  1463.1276 -31.3318 290.0052
v  1460.3651 -31.3051 289.7785
v  1458.1090 -31.9926 289.7785
v  1457.4510 -31.7183 289.7785
v  1520.2032 -36.0712 291.5783
v  1456.2141 -31.8289 289.0489
v  1456.2141 -30.3764 289.0520
v  1476.3302 -36.8248 288.8255
v  1473.2212 -35.5705 288.8245
v  1473.2212 -34.9488 287.5851
v  1491.1766 -38.7424 288.8219
v  1487.6951 -38.2460 288.8228
v  1487.6951 -37.6244 286.9709
v  1457.4510 -32.3445 289.0222
v  1466.4861 -30.1411 287.3194
v  1469.8185 -23.8972 286.7551
v  1468.5709 -24.3096 286.9664
v  1475.1495 -23.2622 286.2276
v  1473.2212 -23.4919 286.4184
v  1482.7354 -22.8058 285.4447
v  1478.3888 -23.0673 285.8933
v  1491.1766 -22.4506 285.1174
v  1487.6951 -22.5971 285.2524
v  1496.0941 -22.8936 284.9267
v  1494.1198 -22.7157 285.0033
v  1499.7656 -23.4128 284.7843
v  1504.4950 -23.9661 284.6010
v  1508.5231 -24.8897 284.4448
v  1510.9248 -25.5701 284.3516
v  1469.8185 -26.1489 291.7292
v  1468.5709 -24.3096 291.2323
v  1468.5709 -26.2633 291.4982
v  1508.5231 -28.1366 283.8621
v  1510.9248 -28.5057 283.7573
v  1456.2141 -28.2914 288.4821
v  1456.2141 -27.1420 288.5536
v  1456.2141 -27.9359 288.1823
v  1456.2141 -28.5715 288.0072
v  1475.1495 -26.3807 292.3099
v  1473.2212 -23.4919 291.7665
v  1473.2212 -26.2968 292.0999
v  1466.4861 -24.9989 287.3194
v  1466.4861 -26.4544 287.0945
v  1469.8185 -26.1489 286.4602
v  1471.0775 -23.7472 286.6305
v  1471.0775 -26.2037 286.3201
v  1482.7354 -26.3621 293.1649
v  1478.3888 -26.3727 292.6750
v  1475.1495 -26.3807 285.8671
v  1478.3888 -26.3727 285.4915
v  1491.1766 -26.4481 293.5332
v  1487.6951 -22.5971 292.9040
v  1487.6951 -26.4126 293.3813
v  1482.7354 -26.3621 284.9873
v  1483.3207 -22.7812 285.4220
v  1483.3207 -26.3681 284.9618
v  1496.0941 -26.9167 293.7478
v  1494.1198 -26.7286 293.6617
v  1491.1766 -26.4481 284.6190
v  1494.1198 -26.7286 284.4906
v  1499.7656 -27.3310 293.8501
v  1496.0941 -26.9167 284.4044
v  1499.7656 -27.3310 284.1863
v  1504.4950 -27.6509 294.1144
v  1504.4950 -27.6509 284.0378
v  1508.5231 -28.1366 294.2902
v  1510.9248 -28.5057 294.3950
v  1465.8438 -26.5133 290.9932
v  1463.1276 -26.4869 290.6141
v  1465.8438 -27.2426 287.0887
v  1463.1276 -27.2163 287.5075
v  1460.3651 -26.4602 290.2285
v  1458.1090 -25.8511 290.2285
v  1460.3651 -27.1895 287.9334
v  1458.1090 -26.8672 287.9334
v  1457.4510 -26.7958 290.2285
v  1457.4510 -27.6859 287.9334
v  1513.3435 -28.8774 283.6518
v  1513.3435 -30.3462 294.8719
v  1516.5773 -31.0002 294.8719
v  1520.1475 -31.4076 284.1142
v  1516.5771 -31.0002 283.2793
v  1520.1475 -30.5512 293.7495
v  1456.2141 -28.2914 289.8605
v  1456.2141 -27.1420 289.7785
v  1456.2141 -27.2752 289.1676
v  1456.2141 -28.5413 289.1803
v  1456.2141 -28.5715 290.2285
v  1456.2141 -27.9359 290.0547
v  1456.2141 -28.5761 289.0520
v  1456.2141 -27.2937 289.0489
v  1469.8185 -27.4104 291.9106
v  1468.5709 -27.3577 291.6638
v  1468.5709 -28.9991 291.4982
v  1508.5231 -29.9554 283.5041
v  1510.9248 -30.1501 283.3921
v  1456.2141 -29.2879 288.4409
v  1456.2141 -29.2249 287.9334
v  1475.1495 -28.1276 292.5312
v  1473.2212 -27.8681 292.3067
v  1473.2212 -30.2248 292.0999
v  1465.8438 -28.3365 287.2168
v  1466.4861 -27.2697 286.9581
v  1466.4861 -28.4926 287.0945
v  1469.8185 -27.4104 286.2803
v  1471.0775 -27.5798 286.1306
v  1471.0775 -29.6436 286.3201
v  1482.7354 -28.3543 293.4448
v  1478.3888 -28.2244 292.9213
v  1475.1495 -28.1276 285.6466
v  1478.3888 -28.2244 285.2451
v  1491.1766 -28.6874 293.8384
v  1487.6951 -28.5500 293.6760
v  1487.6951 -31.7557 293.3813
v  1482.7354 -28.3543 284.7065
v  1483.3207 -28.3774 284.6792
v  1483.3207 -31.3910 284.9618
v  1496.0941 -29.1704 294.0677
v  1494.1198 -28.9765 293.9756
v  1491.1766 -28.6874 284.3129
v  1494.1198 -28.9765 284.1756
v  1499.7656 -29.5259 294.1422
v  1496.0941 -29.1704 284.0836
v  1499.7656 -29.5259 283.8158
v  1504.4950 -29.7151 294.4594
v  1504.4950 -29.7151 283.6919
v  1508.5231 -29.9554 294.6472
v  1510.9248 -30.1501 294.7592
v  1465.8438 -27.2426 291.1242
v  1463.1276 -27.2163 290.7190
v  1460.3651 -27.1895 290.3070
v  1458.1090 -26.8672 290.3070
v  1457.4510 -27.6859 290.3070
v  1513.3435 -30.3462 283.2793
v  1520.1475 -31.4076 294.0694
v  1456.2141 -29.2879 289.9138
v  1456.2141 -29.2505 289.1704
v  1456.2141 -30.3188 289.1803
v  1456.2141 -29.2249 290.3070
v  1456.2141 -29.2945 289.0333
v  1463.1276 -28.3102 287.6086
v  1460.3651 -28.2834 288.0072
v  1458.1090 -28.3912 288.0072
v  1457.4510 -28.8089 288.0072
v  1520.1475 -32.6922 284.4330
v  1456.2141 -31.7529 289.1676
v  1476.3302 -36.8643 288.9649
v  1473.2212 -35.4945 289.0706
v  1491.1766 -38.6664 289.1556
v  1487.6951 -38.1700 289.1483
v  1457.4510 -32.3125 289.1409
v  1483.3207 -37.5463 289.1391
v  1483.3207 -37.6223 288.8239
v  1483.3207 -21.6607 287.0514
v  1483.3207 -21.1907 288.8239
v  1483.3207 -21.2482 289.1391
v  1483.3207 -37.0007 291.4019
v  1483.3207 -26.3681 293.1905
v  1487.6951 -26.4126 284.7709
v  1483.3207 -28.3774 293.4721
v  1487.6951 -28.5500 284.4752
v  1468.5709 -32.7589 290.5115
v  1469.8185 -33.3997 290.6411
v  1468.5709 -31.2120 291.2323
v  1467.1473 -30.4808 287.2075
v  1467.1473 -28.6532 286.9686
v  1468.5709 -32.7589 287.8861
v  1469.8185 -34.0213 288.8227
v  1468.5709 -33.3806 288.8208
v  1467.1473 -23.6598 288.0216
v  1467.1473 -23.1899 288.8187
v  1468.5709 -33.3720 289.0275
v  1469.8185 -33.9453 289.0450
v  1467.1473 -23.2473 289.0076
v  1467.1473 -23.6598 290.3636
v  1467.1473 -24.7803 287.2075
v  1467.1473 -24.7803 290.9984
v  1467.1473 -26.3938 291.2346
v  1468.5709 -26.2633 286.6977
v  1467.1473 -27.2976 291.3821
v  1468.5709 -27.3577 286.5341
v  1467.1473 -32.0277 290.3636
v  1467.1473 -30.4808 290.9984
v  1467.1473 -28.6532 291.2346
v  1467.1473 -32.0277 288.0216
v  1467.1473 -32.6493 288.8187
v  1467.1473 -32.6408 289.0076
v  1467.1473 -26.3938 286.9686
v  1467.1473 -27.2976 286.8236
v  1466.4861 -23.8784 288.0846
v  1466.4861 -23.4085 288.8177
v  1466.4861 -23.4659 288.9983
v  1466.4861 -26.4544 291.1122
v  1466.4861 -27.2697 291.2513
v  1471.0775 -22.6267 287.7000
v  1471.0775 -22.1567 288.8233
v  1471.0775 -22.2142 289.0545
v  1471.0775 -33.9729 290.7139
v  1471.0775 -34.5946 288.8233
v  1471.0775 -26.2037 291.8663
v  1473.2212 -26.2968 286.0817
v  1471.0775 -27.5798 292.0572
v  1473.2212 -27.8681 285.8758
v  1471.0775 -34.5185 289.0545
v  1525.0215 -34.5273 290.4393
v  1525.0215 -33.4590 291.3281
v  1525.0215 -34.9040 289.1385
v  1524.9644 -34.9748 288.9572
v  1524.9916 -34.5886 287.9135
v  1524.9916 -33.5203 286.8796
v  1524.9916 -32.4099 286.5999
v  1524.9916 -31.7005 286.4286
v  1524.9916 -31.2275 286.5999
v  1524.9916 -30.2185 286.8796
v  1524.9916 -29.4447 287.9135
v  1524.9916 -29.1202 288.9572
v  1524.9916 -29.1599 289.1385
v  1524.9916 -29.4447 290.4393
v  1524.9916 -30.2185 291.3281
v  1524.9916 -31.1531 291.6059
v  1524.9916 -31.6766 291.7778
v  1525.0215 -32.4005 291.6059
v  1526.9946 -33.0551 289.7288
v  1526.8667 -32.5777 290.1401
v  1527.0398 -33.2236 289.1269
v  1527.0227 -33.2620 289.0430
v  1526.9886 -33.0861 288.5600
v  1526.8607 -32.6087 288.0816
v  1526.7277 -32.1123 287.9522
v  1526.6427 -31.7952 287.8729
v  1526.5861 -31.5838 287.9522
v  1526.4652 -31.1328 288.0816
v  1526.3726 -30.7869 288.5600
v  1526.3337 -30.6419 289.0430
v  1526.3385 -30.6596 289.1269
v  1526.3726 -30.7869 289.7288
v  1526.4652 -31.1328 290.1401
v  1526.5771 -31.5505 290.2687
v  1526.6399 -31.7845 290.3482
v  1526.7400 -32.1045 290.2687
v  1527.1281 -31.7322 289.1187
v  1509.1028 -40.5779 283.8776
v  1507.9480 -39.8021 284.0282
v  1506.8013 -38.5796 284.1213
v  1506.7915 -38.5579 293.8414
v  1506.5742 -38.5579 294.0234
v  1506.8013 -38.5796 284.0349
v  1508.3575 -39.8021 284.2571
v  1507.9382 -39.7804 294.2281
v  1509.0931 -41.1726 294.3851
v  1509.0931 -41.0116 294.1796
v  1509.1028 -40.7820 283.9630
v  1507.9382 -39.7804 294.1360
v  1509.1028 -40.5779 284.1891
v  1509.0931 -41.0116 294.2235
v  1507.6921 -40.7835 284.1189
v  1506.8177 -40.2558 284.1361
v  1506.4769 -39.3406 284.1515
v  1505.7830 -40.2372 294.1304
v  1505.9469 -41.1524 294.2153
v  1506.8213 -41.3969 294.2406
v  1484.8457 -14.9327 289.0657
v  1484.8303 -14.8829 288.9904
v  1483.1171 -16.9302 288.9906
v  1483.1324 -16.9800 289.0641
v  1486.5836 -12.3454 289.0681
v  1486.5681 -12.2956 288.9901
v  1485.3300 -12.9407 288.9903
v  1485.3455 -12.9905 289.0671
v  1484.8219 -18.2683 288.8565
v  1487.1313 -17.0576 288.8557
v  1480.9501 -20.0605 289.1716
v  1480.9366 -20.0097 288.8578
v  1481.9337 -19.8404 289.1728
v  1488.3296 -15.7251 289.1956
v  1487.1449 -17.1083 289.1894
v  1486.7932 -12.3127 288.9890
v  1486.8066 -12.3634 289.0670
v  1488.3162 -15.6743 288.8549
v  1480.8773 -19.8349 288.8626
v  1480.9644 -19.5025 288.9909
v  1481.9203 -19.7896 288.8576
v  1480.8927 -19.8847 289.1765
v  1484.8354 -18.3191 289.1820
v  1480.9797 -19.5523 289.0620
v  1466.9159 -20.8221 289.1065
v  1466.9159 -20.7646 288.8841
v  1465.7491 -20.6298 288.8823
v  1465.7491 -20.6873 289.0890
v  1466.0768 -20.8693 288.8751
v  1467.9077 -21.1038 288.8770
v  1463.9331 -22.4754 289.0436
v  1463.9331 -22.4180 288.8710
v  1464.2878 -21.9442 289.0526
v  1467.9077 -21.1613 289.0994
v  1464.3256 -21.1005 288.8801
v  1464.3256 -21.1580 289.0690
v  1464.6531 -21.3400 288.8730
v  1466.0768 -20.9267 289.0818
v  1464.6531 -21.3974 289.0619
v  1463.7865 -21.6163 288.8792
v  1463.7865 -21.6738 289.0598
v  1464.2878 -21.8868 288.8720
v  1463.7501 -22.0810 288.8782
v  1463.7501 -22.1385 289.0508
v  1481.7382 -41.8915 288.8515
v  1481.7998 -41.8535 289.1852
v  1481.4651 -40.8995 289.1779
v  1481.4033 -40.9375 288.8524
v  1486.0449 -40.9630 289.1729
v  1485.9893 -41.0072 288.8391
v  1484.2803 -39.8432 289.1655
v  1482.0925 -38.3064 288.8411
v  1482.1482 -38.2622 289.1563
v  1484.2247 -39.8875 288.8400
v  1482.9451 -41.9734 289.1813
v  1482.8853 -42.0133 288.8476
v  1481.8501 -39.3163 289.1648
v  1482.5433 -40.6004 289.1740
v  1481.7903 -39.3563 288.8495
v  1482.4835 -40.6404 288.8484
v  1481.6302 -39.7149 289.1686
v  1481.5686 -39.7529 288.8534
v  1467.7780 -41.7510 288.8630
v  1467.8317 -41.6878 289.1227
v  1466.5431 -39.7452 289.1082
v  1466.4894 -39.8084 288.8620
v  1465.5823 -34.1275 288.8583
v  1465.8020 -35.6895 288.8602
v  1465.8557 -35.6263 289.0826
v  1465.6361 -34.0643 289.0651
v  1471.8943 -40.2813 289.1048
v  1471.8661 -40.3506 288.8452
v  1470.0426 -37.7289 289.0903
v  1466.9203 -33.7018 289.0472
v  1467.7382 -34.8308 289.0647
v  1466.8921 -33.7711 288.8405
v  1467.7100 -34.9001 288.8424
v  1468.5626 -35.9725 288.8430
v  1468.6752 -41.7338 289.1192
v  1468.6263 -41.7982 288.8596
v  1466.2175 -35.4734 289.0791
v  1466.6018 -36.9107 289.0886
v  1468.5908 -35.9032 289.0742
v  1465.7137 -33.9876 289.0616
v  1465.6649 -34.0520 288.8549
v  1466.1687 -35.5378 288.8568
v  1467.1669 -39.4220 288.8586
v  1470.0144 -37.7982 288.8441
v  1466.1285 -37.1504 289.0920
v  1466.0747 -37.2136 288.8608
v  1467.2158 -39.3577 289.1047
v  1466.5530 -36.9751 288.8574
v  1450.5007 -33.6703 289.0734
v  1450.5007 -33.5943 289.1920
v  1451.3468 -30.3143 289.2047
v  1451.3468 -30.3719 289.0764
v  1451.6420 -35.8642 289.0325
v  1451.6420 -35.8557 289.1511
v  1451.0280 -35.3338 289.1653
v  1451.0280 -35.3657 289.0467
v  1451.2021 -19.9696 289.1920
v  1451.2021 -19.9636 289.0734
v  1450.3469 -21.9271 289.0734
v  1450.3469 -21.9246 289.1920
v  1451.3468 -27.2752 289.1920
v  1451.3468 -27.2937 289.0734
v  1451.3468 -28.5761 289.0764
v  1451.3468 -28.5413 289.2047
v  1451.3468 -29.2945 289.0578
v  1451.3468 -29.2505 289.1949
v  1452.8571 -35.4238 289.1455
v  1452.8571 -35.4323 289.0269
v  1452.4902 -34.6419 289.1598
v  1452.4534 -30.3143 289.1992
v  1451.8007 -33.1722 289.1864
v  1452.4534 -29.2505 289.1893
v  1452.4534 -28.5413 289.1992
v  1452.4534 -27.2752 289.1864
v  1451.9650 -22.4283 289.1864
v  1453.1755 -19.6644 289.0678
v  1453.1755 -19.6704 289.1864
v  1451.9648 -22.4308 289.0678
v  1452.4534 -28.5761 289.0709
v  1452.4534 -27.2937 289.0678
v  1452.4534 -29.2945 289.0522
v  1452.4534 -30.3719 289.0709
v  1451.8007 -33.2482 289.0678
v  1452.4902 -34.6739 289.0411
# 684 vertices

vn -0.5667 -0.6427 0.5156
vn -0.3603 -0.8956 0.2608
vn -0.5212 -0.8264 0.2133
vn -0.6715 -0.5924 0.4452
vn -0.4917 0.7298 0.4750
vn -0.5841 0.6905 0.4266
vn -0.3812 0.9083 0.1723
vn -0.2509 0.9472 0.1996
vn -0.6883 -0.4168 0.5937
vn -0.6154 -0.4633 0.6377
vn -0.1508 0.1434 -0.9781
vn -0.1421 -0.6334 -0.7607
vn -0.1499 -0.6777 -0.7199
vn -0.2004 -0.0829 -0.9762
vn -0.7659 -0.5714 -0.2949
vn -0.7919 -0.5679 -0.2245
vn -1.0000 0.0000 -0.0000
vn -0.6053 -0.5655 -0.5601
vn -0.6052 -0.6509 -0.4584
vn -0.5431 -0.6912 -0.4767
vn -0.4259 -0.8915 -0.1546
vn -0.4647 -0.8698 -0.1657
vn -0.4612 0.7510 0.4725
vn -0.3434 0.7939 0.5018
vn -0.1532 0.9789 0.1351
vn -0.2655 0.9531 0.1451
vn -0.6047 -0.6336 0.4826
vn -0.5421 -0.6744 0.5013
vn -0.5371 -0.4232 0.7297
vn -0.6204 -0.4017 0.6736
vn -0.6657 -0.6225 -0.4115
vn -0.7045 -0.3758 -0.6020
vn -0.6279 -0.3989 -0.6683
vn -0.4476 -0.7505 -0.4861
vn -0.5419 -0.6897 -0.4803
vn -0.5417 -0.4092 -0.7342
vn -0.5215 -0.4093 -0.7487
vn -0.3829 -0.7745 -0.5036
vn -0.1715 -0.9761 -0.1334
vn -0.3036 -0.9429 -0.1366
vn -0.3220 0.8031 0.5013
vn -0.3104 0.8128 0.4929
vn -0.0920 0.9902 0.1052
vn -0.1208 0.9859 0.1162
vn -0.4483 -0.7348 0.5090
vn -0.3820 -0.7614 0.5237
vn -0.4914 -0.4262 0.7595
vn -0.5133 -0.4104 0.7537
vn -0.3109 -0.7846 -0.5365
vn -0.5013 -0.4250 -0.7537
vn -0.3722 -0.4711 -0.7997
vn -0.2185 -0.8199 -0.5291
vn -0.1423 -0.9836 -0.1107
vn -0.1600 -0.9799 -0.1188
vn -0.2375 0.8219 0.5178
vn -0.1378 0.8509 0.5069
vn -0.0484 0.9949 0.0884
vn -0.0725 0.9927 0.0965
vn -0.3100 -0.7746 0.5512
vn -0.2198 -0.8091 0.5450
vn -0.2357 -0.4923 0.8379
vn -0.3671 -0.4700 0.8027
vn -0.2047 -0.8241 -0.5281
vn -0.2180 -0.8204 -0.5286
vn -0.2359 -0.4887 -0.8399
vn -0.2397 -0.4877 -0.8395
vn -0.1955 -0.8272 -0.5268
vn -0.1111 -0.9888 -0.0997
vn -0.1269 -0.9866 -0.1027
vn -0.0812 0.8603 0.5032
vn -0.0349 0.8605 0.5082
vn 0.0753 0.9941 0.0780
vn 0.0132 0.9966 0.0810
vn -0.2062 -0.8149 0.5416
vn -0.1971 -0.8185 0.5396
vn -0.2436 -0.4936 0.8349
vn -0.2397 -0.4856 0.8407
vn -0.2190 -0.8438 -0.4899
vn -0.2435 -0.4957 -0.8337
vn -0.3107 -0.4880 -0.8157
vn -0.1261 -0.8171 -0.5626
vn -0.0082 -0.9950 -0.1000
vn -0.0902 -0.9915 -0.0938
vn -0.0105 0.8652 0.5014
vn 0.0030 0.8606 0.5092
vn 0.1119 0.9910 0.0731
vn 0.0994 0.9922 0.0758
vn -0.1086 -0.8242 0.5558
vn -0.0658 -0.8806 0.4693
vn -0.1749 -0.5591 0.8105
vn -0.1634 -0.5138 0.8422
vn -0.2264 -0.5026 -0.8343
vn 0.0233 -0.8788 -0.4767
vn 0.0995 -0.9912 -0.0868
vn 0.0304 0.8812 0.4717
vn 0.1515 0.9860 0.0693
vn -0.0867 -0.8576 0.5070
vn -0.2458 -0.5628 0.7892
vn -0.1234 -0.5797 -0.8054
vn 0.0187 -0.8609 -0.5085
vn 0.1019 -0.7870 0.6085
vn 0.1430 -0.9859 -0.0866
vn 0.1105 0.8931 0.4360
vn 0.2259 0.9719 0.0655
vn -0.5853 -0.5228 0.6198
vn -0.4768 -0.0316 0.8785
vn -0.1438 -0.6263 0.7662
vn 0.0625 -0.8969 -0.4377
vn 0.1027 -0.9911 -0.0844
vn 0.1526 -0.9847 -0.0843
vn 0.2413 -0.8196 0.5196
vn 0.1438 0.9016 0.4079
vn 0.2498 0.9662 0.0633
vn 0.0386 -0.8957 0.4430
vn -0.1144 -0.7287 0.6752
vn -0.1503 -0.6759 0.7215
vn -0.0716 -0.0912 0.9933
vn -0.5649 -0.6693 -0.4826
vn -0.3395 -0.9060 -0.2529
vn -0.1500 -0.9366 -0.3167
vn -0.4049 -0.7064 -0.5805
vn -0.5408 -0.4355 0.7196
vn -0.4151 -0.6656 0.6202
vn -0.1177 0.9611 0.2500
vn -0.3697 0.7367 0.5662
vn -0.4860 0.7521 -0.4452
vn -0.5666 0.5664 -0.5985
vn -0.5169 0.5246 -0.6765
vn -0.3605 0.7675 -0.5301
vn -0.1323 -0.6773 -0.7237
vn 0.0643 -0.9258 -0.3724
vn -0.0447 -0.9248 -0.3778
vn -0.0032 -0.6613 -0.7501
vn -0.1481 -0.6215 0.7693
vn -0.2769 -0.4005 0.8734
vn 0.1279 -0.3356 0.9333
vn -0.0120 -0.6120 0.7908
vn -0.0588 0.6991 0.7126
vn 0.1653 0.9443 0.2847
vn -0.3126 0.9082 0.2784
vn -0.2998 0.6743 0.6749
vn -0.0396 0.7433 -0.6678
vn -0.2313 0.4774 -0.8477
vn -0.2328 0.4042 -0.8846
vn -0.2962 0.7135 -0.6350
vn -0.3370 -0.8712 -0.3571
vn -0.1598 -0.7466 -0.6458
vn 0.2588 -0.3996 0.8794
vn -0.1659 -0.6994 0.6952
vn -0.8962 0.4236 0.1318
vn -0.7856 0.3915 0.4791
vn -0.5932 0.3899 -0.7044
vn -0.7973 0.3995 -0.4525
vn 0.1022 -0.9908 0.0886
vn 0.1696 -0.9801 0.1032
vn 0.2939 -0.8673 0.4018
vn -0.1142 -0.7303 -0.6735
vn 0.2779 -0.7568 -0.5916
vn 0.2951 -0.8700 -0.3950
vn 0.2298 0.8973 -0.3769
vn 0.3032 0.9511 -0.0593
vn 0.3636 0.9292 -0.0669
vn 0.4576 0.8237 -0.3349
vn 0.2283 0.8945 0.3844
vn 0.0945 0.8091 0.5800
vn 0.4129 0.7789 0.4720
vn 0.4534 0.8234 0.3412
vn 0.5800 -0.7724 -0.2590
vn 0.3300 -0.9380 -0.1058
vn 0.1544 -0.9831 -0.0980
vn 0.6049 0.7641 -0.2241
vn 0.6714 0.6644 -0.3283
vn 0.4190 0.7774 -0.4691
vn 0.6092 0.7583 0.2321
vn 0.3916 0.9166 0.0801
vn 0.3668 0.9276 0.0715
vn 0.5845 -0.7645 0.2718
vn 0.6832 -0.6167 0.3911
vn 0.2702 -0.7583 0.5933
vn -0.2415 -0.9668 -0.0838
vn -0.5097 -0.8352 -0.2066
vn -0.4343 -0.8984 -0.0648
vn -0.0168 0.9876 -0.1564
vn -0.2555 0.9575 -0.1342
vn -0.3607 0.9221 -0.1403
vn -0.2064 0.7053 -0.6782
vn -0.0846 0.9963 -0.0119
vn -0.1149 0.9876 -0.1073
vn -0.1449 0.9826 -0.1162
vn -0.1122 0.9936 -0.0137
vn -0.1199 -0.9927 -0.0155
vn -0.1169 -0.9921 0.0461
vn -0.0990 -0.9942 0.0411
vn -0.1042 -0.9935 -0.0455
vn -0.2275 0.7947 -0.5628
vn -0.0688 0.9937 -0.0884
vn -0.0864 0.9915 -0.0970
vn -0.0576 0.9983 -0.0102
vn 0.0131 0.6913 -0.7225
vn 0.0143 0.9970 -0.0761
vn -0.0479 0.9957 -0.0792
vn -0.0324 0.7088 -0.7047
vn -0.0698 -0.9976 -0.0042
vn -0.0651 -0.9971 0.0382
vn -0.1017 -0.9941 0.0388
vn -0.1016 -0.9948 -0.0083
vn 0.2563 0.9598 -0.1144
vn 0.1004 0.9924 -0.0716
vn 0.0763 0.9944 -0.0736
vn 0.0673 0.7283 -0.6820
vn 0.0064 -0.9999 -0.0140
vn 0.0089 -0.9993 0.0373
vn 0.1200 0.9928 -0.0058
vn 0.1129 0.9912 -0.0692
vn 0.0987 -0.9951 -0.0040
vn 0.0944 -0.9949 0.0362
vn 0.1594 0.9872 -0.0054
vn 0.1525 0.9861 -0.0659
vn 0.1523 -0.9883 -0.0068
vn 0.1521 -0.9877 0.0350
vn 0.2332 0.9724 -0.0050
vn 0.2267 0.9720 -0.0626
vn 0.1075 -0.9942 -0.0063
vn 0.1072 -0.9936 0.0342
vn 0.1611 -0.9863 0.0344
vn 0.1614 -0.9869 -0.0064
vn 0.3067 0.9518 -0.0046
vn 0.2505 0.9662 -0.0606
vn 0.2566 0.9665 -0.0048
vn -0.2295 -0.9721 0.0480
vn -0.0065 -0.9977 0.0674
vn -0.0328 -0.9948 -0.0961
vn -0.2761 0.7801 -0.5614
vn -0.2368 0.9520 -0.1939
vn -0.0990 0.9628 -0.2513
vn -0.0026 0.9956 -0.0937
vn 0.1261 -0.9863 -0.1062
vn 0.1417 -0.9859 0.0890
vn 0.1845 -0.9567 0.2250
vn 0.1476 -0.9570 -0.2497
vn 0.1696 0.9696 -0.1763
vn 0.1542 0.9345 -0.3209
vn -0.3263 0.9093 -0.2583
vn 0.1255 0.9187 -0.3745
vn -0.8994 0.4238 -0.1070
vn -0.6426 0.2727 -0.7160
vn 0.1197 -0.9928 -0.0052
vn 0.3068 0.9514 0.0247
vn 0.3364 0.9414 0.0259
vn 0.3362 0.9418 -0.0062
vn 0.2597 -0.9657 -0.0062
vn 0.2599 -0.9647 0.0417
vn 0.1236 -0.9917 0.0361
vn 0.3282 0.9446 -0.0081
vn 0.3754 0.9238 -0.0748
vn -0.4365 -0.8987 0.0414
vn 0.0034 0.9828 0.1846
vn -0.2473 0.5574 0.7926
vn -0.3725 0.9161 0.1483
vn -0.0852 0.9956 0.0386
vn -0.1127 0.9928 0.0407
vn -0.1515 0.9805 0.1253
vn -0.2744 0.7200 0.6375
vn -0.0578 0.9977 0.0357
vn 0.0066 0.6609 0.7504
vn -0.0319 0.6717 0.7401
vn -0.0491 0.9952 0.0848
vn 0.2545 0.9577 0.1345
vn 0.0619 0.7110 0.7005
vn 0.1199 0.9924 0.0281
vn 0.1594 0.9868 0.0272
vn 0.2331 0.9721 0.0261
vn 0.3027 0.9511 0.0621
vn 0.2564 0.9662 0.0255
vn -0.3202 0.6837 0.6558
vn 0.0038 0.9990 0.0450
vn 0.2275 0.9726 0.0468
vn 0.1636 0.9082 0.3854
vn -0.6306 0.2713 0.7271
vn 0.3273 0.9444 0.0317
vn -0.7743 -0.5774 0.2588
vn -0.7838 -0.5273 0.3280
vn -0.6080 -0.5695 0.5532
vn -1.0000 0.0000 0.0000
vn -0.3075 -0.9397 0.1500
vn -0.5407 -0.6744 0.5028
vn -0.4295 -0.8902 0.1516
vn -0.1646 -0.9778 0.1296
vn -0.1784 -0.9733 0.1442
vn -0.1283 -0.9857 0.1095
vn -0.2193 -0.8106 0.5430
vn -0.1447 -0.9828 0.1143
vn -0.0676 -0.9919 0.1075
vn -0.1123 -0.9880 0.1059
vn 0.0025 -0.9960 0.0898
vn 0.0756 -0.9922 0.0991
vn 0.1419 -0.9857 0.0908
vn 0.2568 -0.8732 -0.4142
vn 0.2102 -0.8820 -0.4217
vn 0.1517 -0.9845 0.0882
vn -0.1683 -0.9310 0.3240
vn 0.0602 -0.9227 0.3807
vn -0.0423 -0.9184 0.3934
vn -0.3330 -0.8606 0.3852
vn 0.3427 -0.9331 0.1086
vn -0.4124 -0.2109 -0.8863
vn -0.7045 -0.0308 -0.7091
vn 0.0064 -0.9715 -0.2369
vn -0.2565 -0.6320 -0.7313
vn -0.4210 -0.8964 -0.1390
vn 0.0105 -0.9955 -0.0939
vn -0.0954 -0.6911 -0.7164
vn -0.1431 -0.9839 -0.1067
vn -0.2960 -0.5260 -0.7973
vn -0.6687 -0.6166 -0.4154
vn -0.4587 0.7656 -0.4511
vn -0.5761 0.7133 -0.3992
vn -0.3211 0.8147 -0.4828
vn -0.3416 0.8060 -0.4834
vn -0.2385 0.8288 -0.5062
vn -0.3115 0.8221 -0.4766
vn -0.0790 0.8668 -0.4924
vn -0.1353 0.8585 -0.4946
vn -0.0081 0.8708 -0.4915
vn -0.0324 0.8666 -0.4980
vn -0.0038 0.8833 -0.4688
vn 0.0517 0.8911 -0.4509
vn 0.1130 0.8968 -0.4278
vn 0.1463 0.9048 -0.3999
vn -0.5308 0.5206 0.6688
vn -0.5799 0.6963 0.4228
vn -0.6389 0.4856 0.5967
vn -0.0642 0.7347 -0.6754
vn -0.0351 0.7748 -0.6312
vn -1.0000 -0.0000 0.0000
vn -0.9668 0.2509 -0.0479
vn -0.9463 0.2684 -0.1801
vn -0.8749 0.3028 -0.3781
vn -0.4257 0.5196 0.7408
vn -0.3438 0.7932 0.5026
vn -0.4122 0.5315 0.7400
vn -0.5782 0.7113 -0.3996
vn -0.6332 0.5213 -0.5721
vn -0.5394 0.5174 -0.6643
vn -0.3406 0.8080 -0.4806
vn -0.4141 0.5489 -0.7261
vn -0.3123 0.5785 0.7536
vn -0.4405 0.5291 0.7252
vn -0.4344 0.5182 -0.7367
vn -0.4504 0.5278 -0.7202
vn -0.1540 0.5927 0.7906
vn -0.1372 0.8514 0.5062
vn -0.1790 0.5926 0.7853
vn -0.3171 0.5797 -0.7506
vn -0.1359 0.8586 -0.4942
vn -0.1784 0.6008 -0.7793
vn -0.0976 0.6067 0.7889
vn -0.1317 0.6022 0.7874
vn -0.1535 0.5949 -0.7890
vn -0.1312 0.6044 -0.7858
vn -0.1079 0.6013 0.7917
vn -0.1422 0.6185 -0.7728
vn -0.1347 0.6658 -0.7339
vn -0.1363 0.6707 0.7291
vn -0.0736 0.6836 -0.7261
vn -0.0648 0.7329 0.6772
vn -0.0358 0.7733 0.6330
vn -0.5541 0.5741 0.6028
vn -0.5021 0.5344 0.6799
vn -0.7002 0.0969 -0.7073
vn -0.6235 0.0828 -0.7774
vn -0.2212 0.4876 0.8446
vn -0.2337 0.4086 0.8823
vn -0.3411 0.0747 -0.9371
vn -0.1311 0.1697 -0.9767
vn -0.6003 0.3954 0.6952
vn -0.1139 0.0537 -0.9920
vn 0.0950 0.8104 -0.5781
vn -0.0815 0.1333 0.9877
vn 0.3794 0.0392 0.9244
vn 0.8367 0.0661 -0.5437
vn 0.3852 0.0382 -0.9220
vn 0.6645 0.6699 0.3312
vn -1.0000 -0.0000 -0.0000
vn -0.9642 0.2561 0.0696
vn -0.6206 0.1506 0.7696
vn -0.7135 -0.0078 0.7006
vn -0.8798 0.3047 0.3648
vn -0.9470 0.2595 0.1892
vn -0.6990 0.0481 -0.7135
vn -0.6556 0.1309 -0.7437
vn -0.6098 0.1066 0.7854
vn -0.7281 0.0849 0.6802
vn -0.6958 -0.3803 0.6093
vn -0.2016 0.1172 -0.9724
vn -0.2088 0.1085 -0.9719
vn -0.5041 -0.3287 -0.7987
vn -0.5302 0.0769 0.8443
vn -0.5244 0.0968 0.8459
vn -0.5352 -0.4104 0.7383
vn -0.6270 -0.4562 -0.6315
vn -0.7366 0.0899 -0.6704
vn -0.6973 -0.4109 -0.5874
vn -0.6180 0.1057 -0.7790
vn -0.5331 0.0997 -0.8402
vn -0.5435 -0.4217 -0.7258
vn -0.3760 0.0909 0.9221
vn -0.5360 0.0867 0.8398
vn -0.5399 0.0766 -0.8383
vn -0.5468 0.0863 -0.8328
vn -0.2336 0.1050 0.9666
vn -0.2410 0.0920 0.9661
vn -0.2360 -0.4865 0.8412
vn -0.3810 0.0909 -0.9201
vn -0.2405 0.0931 -0.9662
vn -0.2356 -0.4946 -0.8366
vn -0.1673 0.0926 0.9816
vn -0.2309 0.1002 0.9678
vn -0.2336 0.1052 -0.9666
vn -0.2309 0.1004 -0.9678
vn -0.2068 0.0529 0.9769
vn -0.2866 0.1128 -0.9514
vn -0.2405 0.1374 -0.9609
vn -0.2697 0.1121 0.9564
vn -0.1632 0.1238 -0.9788
vn -0.2017 0.1172 0.9724
vn -0.2089 0.1085 0.9719
vn -0.6896 0.0989 0.7174
vn -0.6108 0.0851 0.7872
vn -0.3328 0.0782 0.9397
vn -0.1364 0.1776 0.9746
vn -0.1174 0.0544 0.9916
vn -0.0815 0.1333 -0.9877
vn 0.8299 0.0596 0.5547
vn -0.6827 -0.0098 0.7307
vn -0.7095 0.0007 0.7047
vn -0.4988 -0.3374 0.7984
vn -0.7449 0.0164 -0.6669
vn -0.5547 -0.4272 -0.7140
vn -0.2860 -0.3927 -0.8741
vn 0.1245 -0.3271 -0.9368
vn 0.2521 -0.3916 -0.8850
vn 0.6880 -0.6125 -0.3893
vn -0.3410 -0.3687 0.8647
vn 0.0641 -0.9824 0.1754
vn -0.2249 -0.6555 0.7209
vn 0.0109 -0.9922 0.1244
vn -0.0964 -0.6662 0.7395
vn -0.1927 -0.6539 0.7316
vn -0.3193 -0.7172 0.6194
vn -0.3056 -0.7491 -0.5878
vn -0.0473 0.9955 -0.0822
vn -0.0408 0.7224 -0.6903
vn -0.0221 0.6566 0.7539
vn -0.1436 -0.9824 0.1192
vn -0.1788 0.5984 0.7810
vn -0.1786 0.5949 -0.7837
vn -0.2405 0.0930 0.9662
vn -0.2410 0.0922 -0.9661
vn -0.5121 -0.8392 0.1832
vn -0.4742 -0.8623 0.1777
vn -0.6673 -0.6022 0.4382
vn -0.6659 -0.6213 -0.4129
vn -0.7010 -0.3961 -0.5931
vn -0.5012 -0.8477 -0.1741
vn -0.2853 -0.6244 -0.7271
vn -0.5193 -0.6134 -0.5950
vn -0.3642 0.9182 -0.1555
vn -0.2086 0.6853 -0.6978
vn -0.5467 -0.5352 0.6440
vn -0.2884 -0.5885 0.7553
vn -0.2386 0.5773 0.7809
vn -0.3762 0.9122 0.1624
vn -0.5757 0.7141 -0.3983
vn -0.5805 0.6951 0.4242
vn -0.6304 0.5106 0.5846
vn -0.6488 0.4801 -0.5903
vn -0.7272 0.0892 0.6806
vn -0.7372 0.0835 -0.6705
vn -0.5166 -0.8320 0.2019
vn -0.6680 -0.5987 0.4419
vn -0.6921 -0.4014 0.5999
vn -0.5040 -0.8419 -0.1927
vn -0.4343 -0.8988 -0.0594
vn -0.4364 -0.8989 0.0395
vn -0.6407 0.5042 -0.5790
vn -0.7365 0.0875 -0.6708
vn -0.3703 0.9137 -0.1674
vn -0.2114 0.6826 -0.6995
vn -0.2141 0.5905 0.7782
vn -0.6227 0.5283 0.5772
vn -0.7273 0.0917 0.6801
vn -0.1463 0.9812 -0.1255
vn -0.1119 0.9936 -0.0154
vn -0.1126 0.9927 0.0431
vn -0.4322 -0.8865 0.1651
vn -0.2724 -0.6328 -0.7248
vn -0.4066 0.5506 0.7291
vn -0.4196 0.5303 -0.7367
vn -0.5253 0.1003 0.8450
vn -0.5323 0.0963 -0.8411
vn -0.2831 -0.6014 0.7472
vn 0.5540 -0.8265 0.1000
vn 0.7551 -0.6178 0.2196
vn 0.4812 -0.8758 0.0372
vn 0.4782 -0.8782 -0.0119
vn 0.5495 -0.8297 -0.0980
vn 0.7449 -0.6338 -0.2085
vn 0.8809 -0.3874 -0.2720
vn 0.9415 0.0726 -0.3291
vn 0.8651 0.4392 -0.2421
vn 0.7556 0.6317 -0.1732
vn 0.5881 0.8057 -0.0710
vn 0.5496 0.8354 -0.0061
vn 0.5447 0.8381 0.0303
vn 0.5813 0.8107 0.0696
vn 0.7441 0.6428 0.1822
vn 0.8567 0.4509 0.2504
vn 0.9393 0.0769 0.3343
vn 0.8838 -0.3771 0.2768
vn 0.9074 -0.4154 0.0634
vn 0.9680 -0.2107 0.1361
vn 0.8882 -0.4592 0.0172
vn 0.8761 -0.4818 -0.0155
vn 0.9017 -0.4276 -0.0643
vn 0.9538 -0.2681 -0.1356
vn 0.9858 0.0296 -0.1653
vn 0.9430 0.2778 -0.1830
vn 0.8801 0.4607 -0.1149
vn 0.8269 0.5567 -0.0799
vn 0.7698 0.6372 -0.0366
vn 0.8656 0.5008 -0.0025
vn 0.7590 0.6510 0.0095
vn 0.7782 0.6269 0.0365
vn 0.8489 0.5229 0.0778
vn 0.8907 0.4422 0.1056
vn 0.9413 0.2929 0.1675
vn 0.9859 0.0712 0.1517
vn 0.9555 0.2950 -0.0016
vn 0.1143 -0.3636 -0.9245
vn -0.3189 0.1271 -0.9392
vn -0.8411 0.5409 0.0000
vn -0.4005 0.0405 0.9154
vn -0.8027 0.5748 -0.1587
vn -0.7001 0.6080 0.3745
vn -0.4831 0.3841 -0.7868
vn -0.1198 -0.3295 0.9365
vn -0.0032 0.3172 0.9483
vn 0.1979 -0.2125 0.9569
vn 0.3182 -0.7520 -0.5772
vn 0.3429 -0.9235 -0.1721
vn 0.3202 -0.6431 -0.6956
vn 0.0481 -0.4792 -0.8764
vn 0.3372 -0.7438 0.5771
vn -0.2993 0.7294 0.6152
vn -0.4398 -0.8976 0.0284
vn -0.7926 -0.6098 -0.0001
vn -0.9634 -0.1004 0.2486
vn -0.9525 -0.3033 0.0288
vn -0.7770 -0.6102 0.1547
vn -0.2189 -0.9423 0.2534
vn -0.6096 0.3573 0.7076
vn -0.6690 0.3842 -0.6362
vn -0.6159 0.5955 -0.5158
vn -0.5668 0.5388 0.6232
vn -0.1438 0.7585 0.6356
vn -0.1723 0.8272 -0.5348
vn -0.6469 0.5513 -0.5269
vn -0.6187 0.4956 0.6096
vn -0.0936 0.1601 -0.9827
vn -0.0761 0.1003 -0.9920
vn -0.6331 -0.2094 0.7452
vn -0.6809 -0.1106 -0.7240
vn -0.1368 0.1554 0.9783
vn 0.1065 0.1884 0.9763
vn -0.0598 0.0418 0.9973
vn 0.2969 0.7988 -0.5232
vn 0.3217 0.7456 0.5836
vn 0.0637 0.1996 -0.9778
vn -0.3050 0.4424 -0.8434
vn -0.8184 0.5305 -0.2209
vn -0.1778 0.3100 -0.9340
vn -0.2423 0.3066 0.9205
vn -0.0758 0.0739 0.9944
vn -0.7603 0.5516 0.3431
vn 0.1045 0.5360 0.8377
vn 0.1601 0.7967 -0.5829
vn -0.0821 0.7984 -0.5966
vn -0.0976 0.6591 0.7457
vn 0.0005 0.1688 -0.9857
vn 0.2967 0.7547 -0.5851
vn -0.5032 -0.6051 0.6169
vn -0.5770 -0.4882 -0.6548
vn 0.0362 -0.1275 0.9912
vn 0.2872 0.5343 0.7950
vn -0.3893 0.6921 -0.6078
vn -0.3771 0.5820 0.7205
vn -0.0495 0.0986 -0.9939
vn -0.0607 -0.2571 0.9645
vn 0.0080 -0.1602 0.9870
vn -0.7114 0.3717 -0.5964
vn -0.6902 0.2833 0.6659
vn -0.0711 0.0650 -0.9954
vn -0.7966 -0.1419 -0.5876
vn -0.7380 -0.2309 0.6340
vn -0.5009 -0.6370 -0.5859
vn -0.4697 -0.6100 0.6381
vn -0.7384 -0.0514 0.6724
vn -0.7687 -0.0803 -0.6345
vn 0.2505 -0.6529 0.7148
vn 0.2337 -0.6893 -0.6857
vn 0.0060 0.0512 0.9987
vn -0.6238 0.4699 -0.6246
vn -0.5845 0.5093 0.6316
vn -0.0160 -0.0269 -0.9995
vn 0.0857 -0.7252 0.6832
vn 0.0596 -0.7504 -0.6583
vn -0.6041 0.3015 0.7377
vn 0.0110 0.0413 0.9991
vn -0.6553 0.2522 -0.7121
vn -0.0243 -0.0077 -0.9997
vn -0.6851 0.2746 0.6747
vn -0.7316 0.2415 -0.6376
vn -0.3963 -0.7045 -0.5887
vn -0.3596 -0.6556 0.6640
vn -0.6803 -0.2560 0.6868
vn -0.7145 -0.2996 -0.6322
vn -0.8105 0.2498 -0.5298
vn -0.7344 -0.1315 -0.6659
vn -0.6732 -0.0776 0.7353
vn -0.6843 0.3189 0.6558
vn 0.3813 -0.5983 0.7047
vn 0.3543 -0.6546 -0.6678
vn 0.0063 0.0476 0.9988
vn -0.1179 0.7505 0.6502
vn 0.0194 0.0892 0.9958
vn -0.1774 0.6585 -0.7313
vn -0.0370 -0.0377 -0.9986
vn -0.0274 -0.0268 -0.9993
vn 0.1412 -0.7133 0.6865
vn 0.1154 -0.7577 -0.6424
vn 0.0303 0.0636 0.9975
vn 0.0176 0.0456 0.9988
vn 0.0122 0.0641 0.9979
vn -0.3066 0.7306 0.6101
vn -0.3873 0.6334 -0.6699
vn -0.0441 -0.0213 -0.9988
vn -0.0222 -0.0131 -0.9997
vn -0.0196 -0.0206 -0.9996
vn -0.6712 -0.0940 0.7353
vn -0.7221 -0.1327 -0.6789
vn 0.0072 0.0407 0.9991
vn -0.0348 -0.0130 -0.9993
vn -0.7816 -0.0087 -0.6237
vn -0.7442 -0.0326 0.6671
vn -0.6519 0.0929 0.7526
vn -0.6890 0.0644 -0.7219
vn -0.1519 -0.7506 -0.6431
vn -0.1123 -0.8013 0.5877
vn -0.5926 -0.4660 0.6570
vn -0.6546 -0.4094 -0.6355
vn -0.4640 0.6296 0.6231
vn -0.4758 0.6387 -0.6047
vn -0.7647 0.0914 -0.6379
vn -0.7553 0.0909 0.6490
vn -0.6766 -0.0475 0.7348
vn -0.6898 -0.0712 -0.7205
vn -0.7350 0.0455 -0.6765
vn -0.6821 -0.0081 0.7312
vn -0.6902 0.0178 -0.7234
vn -0.7129 -0.0093 0.7012
vn 0.2996 -0.6874 0.6616
vn 0.2528 -0.6458 -0.7204
vn 0.0533 -0.0786 0.9955
vn 0.0285 0.0092 0.9996
vn 0.0403 -0.0547 0.9977
vn 0.0271 -0.0133 0.9995
vn 0.0271 -0.0111 0.9996
vn 0.0257 0.0289 0.9993
vn 0.0182 -0.0022 0.9998
vn 0.1236 0.7595 -0.6386
vn 0.1395 0.7481 0.6488
vn -0.0182 0.0022 -0.9998
vn -0.0270 0.0672 -0.9974
vn -0.0257 -0.0070 -0.9996
vn -0.0271 0.0245 -0.9993
vn -0.0271 -0.0433 -0.9987
vn -0.0381 0.0460 -0.9982
vn -0.0541 0.0807 -0.9953
# 689 vertex normals

vt 0.3867 0.1756 0.0000
vt 0.4104 0.1524 0.0000
vt 0.4141 0.1593 0.0000
vt 0.3900 0.1837 0.0000
vt 0.5463 0.8769 0.0000
vt 0.5371 0.8792 0.0000
vt 0.5475 0.8447 0.0000
vt 0.5554 0.8436 0.0000
vt 0.3740 0.1927 0.0000
vt 0.3722 0.1845 0.0000
vt 0.9125 0.1909 0.0000
vt 0.9475 0.1644 0.0000
vt 0.9646 0.1801 0.0000
vt 0.9308 0.2053 0.0000
vt 0.4045 0.0099 0.0000
vt 0.3950 0.0240 0.0000
vt 0.3923 0.0134 0.0000
vt 0.4104 0.0005 0.0000
vt 0.5594 0.0398 0.0000
vt 0.5725 0.0443 0.0000
vt 0.5384 0.0865 0.0000
vt 0.5267 0.0801 0.0000
vt 0.4932 0.8888 0.0000
vt 0.4800 0.8903 0.0000
vt 0.4944 0.8484 0.0000
vt 0.5074 0.8492 0.0000
vt 0.4054 0.2245 0.0000
vt 0.4122 0.2364 0.0000
vt 0.3870 0.2487 0.0000
vt 0.3820 0.2359 0.0000
vt 0.5434 0.0373 0.0000
vt 0.5494 0.0147 0.0000
vt 0.5664 0.0145 0.0000
vt 0.6141 0.0593 0.0000
vt 0.5946 0.0520 0.0000
vt 0.6035 0.0215 0.0000
vt 0.6245 0.0260 0.0000
vt 0.6459 0.0659 0.0000
vt 0.6027 0.1191 0.0000
vt 0.5750 0.1065 0.0000
vt 0.4372 0.8955 0.0000
vt 0.4042 0.8997 0.0000
vt 0.4221 0.8456 0.0000
vt 0.4533 0.8465 0.0000
vt 0.4345 0.2740 0.0000
vt 0.4469 0.3037 0.0000
vt 0.4154 0.3229 0.0000
vt 0.4039 0.2900 0.0000
vt 0.6886 0.0749 0.0000
vt 0.6593 0.0312 0.0000
vt 0.7061 0.0382 0.0000
vt 0.6935 0.0774 0.0000
vt 0.6443 0.1391 0.0000
vt 0.6399 0.1360 0.0000
vt 0.3600 0.9053 0.0000
vt 0.3545 0.9047 0.0000
vt 0.3748 0.8430 0.0000
vt 0.3802 0.8443 0.0000
vt 0.4636 0.3435 0.0000
vt 0.4668 0.3478 0.0000
vt 0.4338 0.3719 0.0000
vt 0.4308 0.3671 0.0000
vt 0.7578 0.1112 0.0000
vt 0.7293 0.0958 0.0000
vt 0.7497 0.0568 0.0000
vt 0.7800 0.0708 0.0000
vt 0.7820 0.1240 0.0000
vt 0.7248 0.1945 0.0000
vt 0.7028 0.1794 0.0000
vt 0.2830 0.8966 0.0000
vt 0.2559 0.8941 0.0000
vt 0.2795 0.8228 0.0000
vt 0.3055 0.8281 0.0000
vt 0.5115 0.4044 0.0000
vt 0.5284 0.4254 0.0000
vt 0.4939 0.4559 0.0000
vt 0.4764 0.4337 0.0000
vt 0.7982 0.1328 0.0000
vt 0.8052 0.0835 0.0000
vt 0.8219 0.0921 0.0000
vt 0.8323 0.1433 0.0000
vt 0.7727 0.2168 0.0000
vt 0.7396 0.2047 0.0000
vt 0.2375 0.8921 0.0000
vt 0.2033 0.8882 0.0000
vt 0.2300 0.8126 0.0000
vt 0.2620 0.8192 0.0000
vt 0.5398 0.4393 0.0000
vt 0.5654 0.4603 0.0000
vt 0.5315 0.4946 0.0000
vt 0.5062 0.4708 0.0000
vt 0.8570 0.1067 0.0000
vt 0.8673 0.1676 0.0000
vt 0.8031 0.2478 0.0000
vt 0.1605 0.8804 0.0000
vt 0.1899 0.8037 0.0000
vt 0.5880 0.5008 0.0000
vt 0.5576 0.5341 0.0000
vt 0.8939 0.1304 0.0000
vt 0.8905 0.1822 -249.9956
vt 0.9107 0.1948 0.0000
vt 0.8336 0.2698 0.0000
vt 0.1251 0.8735 0.0000
vt 0.1556 0.7961 0.0000
vt 0.6095 0.5310 0.0000
vt 0.6079 0.5381 0.0000
vt 0.5825 0.5640 0.0000
vt 0.9493 0.2200 0.0000
vt 0.8690 0.2973 0.0000
vt 0.8514 0.2835 0.0000
vt 0.9300 0.2073 0.0000
vt 0.1045 0.8692 0.0000
vt 0.1352 0.7915 0.0000
vt 0.6375 0.5662 0.0000
vt 0.6149 0.5990 0.0000
vt 0.5983 0.5817 0.0000
vt 0.6180 0.5524 0.0000
vt 0.5068 0.0314 0.0000
vt 0.4824 0.0643 0.0000
vt 0.4543 0.0558 0.0000
vt 0.4739 0.0282 0.0000
vt 0.3641 0.1533 0.0000
vt 0.3773 0.1445 0.0000
vt 0.5875 0.8378 0.0000
vt 0.5816 0.8658 0.0000
vt 0.5997 0.6849 0.0000
vt 0.6080 0.6685 0.0000
vt 0.6327 0.6982 0.0000
vt 0.6242 0.7128 0.0000
vt 0.4405 0.0249 0.0000
vt 0.4257 0.0471 0.0000
vt 0.4070 0.0363 0.0000
vt 0.4200 0.0172 0.0000
vt 0.3677 0.1129 0.0000
vt 0.3558 0.1216 0.0000
vt 0.3436 0.1059 0.0000
vt 0.3568 0.0941 0.0000
vt 0.6175 0.8546 0.0000
vt 0.6202 0.8320 0.0000
vt 0.6432 0.8338 0.0000
vt 0.6398 0.8484 0.0000
vt 0.6492 0.7413 0.0000
vt 0.6577 0.7284 0.0000
vt 0.6732 0.7459 0.0000
vt 0.6650 0.7576 0.0000
vt 0.4027 0.0319 0.0000
vt 0.4148 0.0144 0.0000
vt 0.3421 0.0993 0.0000
vt 0.3532 0.0894 0.0000
vt 0.6528 0.8414 0.0000
vt 0.6475 0.8561 0.0000
vt 0.6828 0.7443 0.0000
vt 0.6755 0.7550 0.0000
vt 0.6961 0.4927 0.0000
vt 0.7180 0.5108 0.0000
vt 0.6611 0.5834 0.0000
vt 0.9818 0.1960 0.0000
vt 0.9986 0.2216 0.0000
vt 0.9685 0.2428 0.0000
vt 0.1997 0.4540 0.0000
vt 0.1815 0.5495 0.0000
vt 0.1540 0.5424 0.0000
vt 0.1741 0.4495 0.0000
vt 0.0848 0.8646 0.0000
vt 0.0664 0.8896 0.0000
vt 0.0461 0.8775 0.0000
vt 0.0607 0.8551 0.0000
vt 0.9692 0.2893 0.0000
vt 0.9005 0.3533 0.0000
vt 0.8898 0.3177 0.0000
vt 0.1389 0.4690 0.0000
vt 0.1399 0.4447 0.0000
vt 0.1734 0.4226 0.0000
vt 0.0408 0.8215 0.0000
vt 0.0630 0.7536 0.0000
vt 0.0880 0.7788 0.0000
vt 0.7068 0.5819 0.0000
vt 0.6936 0.6089 0.0000
vt 0.6418 0.6146 0.0000
vt 0.4592 0.0932 0.0000
vt 0.4897 0.0669 0.0000
vt 0.4646 0.0980 0.0000
vt 0.5376 0.7549 0.0000
vt 0.5506 0.6988 0.0000
vt 0.5625 0.7073 0.0000
vt 0.5506 0.7580 0.0000
vt 0.4862 0.7413 0.0000
vt 0.5024 0.6736 0.0000
vt 0.5195 0.6827 0.0000
vt 0.5045 0.7463 0.0000
vt 0.5855 0.2015 0.0000
vt 0.5759 0.2129 0.0000
vt 0.5533 0.1877 0.0000
vt 0.5599 0.1799 0.0000
vt 0.4157 0.7228 0.0000
vt 0.4379 0.6382 0.0000
vt 0.4749 0.6585 0.0000
vt 0.4561 0.7334 0.0000
vt 0.3422 0.7028 0.0000
vt 0.3656 0.6135 0.0000
vt 0.3951 0.6237 0.0000
vt 0.3725 0.7111 0.0000
vt 0.6771 0.2785 0.0000
vt 0.6664 0.2910 0.0000
vt 0.6532 0.2796 0.0000
vt 0.6637 0.2672 0.0000
vt 0.3005 0.6913 372.8148
vt 0.3239 0.5987 0.0000
vt 0.3406 0.6046 0.0000
vt 0.3169 0.6958 0.0000
vt 0.7075 0.2929 0.0000
vt 0.6966 0.3058 0.0000
vt 0.2696 0.6824 0.0000
vt 0.2932 0.5879 0.0000
vt 0.7337 0.3269 0.0000
vt 0.7223 0.3401 0.0000
vt 0.2298 0.6713 0.0000
vt 0.2543 0.5745 0.0000
vt 0.7609 0.3505 0.0000
vt 0.7491 0.3640 0.0000
vt 0.1958 0.6618 0.0000
vt 0.2210 0.5631 0.0000
vt 0.7933 0.3791 0.0000
vt 0.7812 0.3928 0.0000
vt 0.7652 0.3784 0.0000
vt 0.7771 0.3647 0.0000
vt 0.1552 0.6507 0.0000
vt 0.2012 0.5563 0.0000
vt 0.1755 0.6563 0.0000
vt 0.4531 0.1004 0.0000
vt 0.4302 0.0859 0.0000
vt 0.4353 0.0799 0.0000
vt 0.5802 0.7652 0.0000
vt 0.5894 0.7271 0.0000
vt 0.6140 0.7464 0.0000
vt 0.6073 0.7727 0.0000
vt 0.4108 0.0663 0.0000
vt 0.4070 0.0712 0.0000
vt 0.3894 0.0575 0.0000
vt 0.3930 0.0529 0.0000
vt 0.6349 0.7804 0.0000
vt 0.6390 0.7661 0.0000
vt 0.6599 0.7759 0.0000
vt 0.6560 0.8003 0.0000
vt 0.6729 0.7745 0.0000
vt 0.6737 0.7997 0.0000
vt 0.8144 0.3980 0.0000
vt 0.1504 0.6675 0.0000
vt 0.1223 0.6597 0.0000
vt 0.1271 0.6428 0.0000
vt 0.8374 0.4189 0.0000
vt 0.8278 0.4313 0.0000
vt 0.8024 0.4116 0.0000
vt 0.0964 0.6343 0.0000
vt 0.1196 0.5503 0.0000
vt 0.4583 0.1054 0.0000
vt 0.5345 0.7666 0.0000
vt 0.5478 0.7693 0.0000
vt 0.5221 0.8476 0.0000
vt 0.4826 0.7549 0.0000
vt 0.5011 0.7590 0.0000
vt 0.4727 0.8473 0.0000
vt 0.4117 0.7370 0.0000
vt 0.4523 0.7473 0.0000
vt 0.3382 0.7172 0.0000
vt 0.3685 0.7254 0.0000
vt 0.3361 0.8346 0.0000
vt 0.2965 0.7061 0.0000
vt 0.3129 0.7105 0.0000
vt 0.2652 0.6982 0.0000
vt 0.2252 0.6877 0.0000
vt 0.1910 0.6786 0.0000
vt 0.1149 0.7871 0.0000
vt 0.1707 0.6730 0.0000
vt 0.5777 0.7750 0.0000
vt 0.6051 0.7809 0.0000
vt 0.6331 0.7868 0.0000
vt 0.6541 0.8063 0.0000
vt 0.6692 0.8159 0.0000
vt 0.0920 0.6492 0.0000
vt 0.3573 0.0717 0.0000
vt 0.3471 0.0798 0.0000
vt 0.3387 0.0873 0.0000
vt 0.3467 0.0716 0.0000
vt 0.4669 0.2370 0.0000
vt 0.4238 0.2564 0.0000
vt 0.4549 0.2216 0.0000
vt 0.5060 0.2958 0.0000
vt 0.4836 0.2621 0.0000
vt 0.5591 0.3499 0.0000
vt 0.4914 0.3795 0.0000
vt 0.5372 0.3276 0.0000
vt 0.5898 0.3814 0.0000
vt 0.5775 0.3688 0.0000
vt 0.6180 0.3982 0.0000
vt 0.6415 0.4351 0.0000
vt 0.6662 0.4614 0.0000
vt 0.6098 0.5309 0.0000
vt 0.6250 0.5472 0.0000
vt 0.6811 0.4770 0.0000
vt 0.3974 0.1252 0.0000
vt 0.3841 0.0975 0.0000
vt 0.3709 0.0810 0.0000
vt 0.3660 0.0777 0.0000
vt 0.7551 0.5174 0.0000
vt 0.3792 0.0413 0.0000
vt 0.3722 0.0314 147.4367
vt 0.5408 0.1639 0.0000
vt 0.5180 0.1438 0.0000
vt 0.5578 0.0972 0.0000
vt 0.6437 0.2504 0.0000
vt 0.6197 0.2302 0.0000
vt 0.6768 0.1615 0.0000
vt 0.3881 0.0488 0.0000
vt 0.5156 0.0329 0.0000
vt 0.5607 0.6461 0.0000
vt 0.5724 0.6574 0.0000
vt 0.5162 0.6109 0.0000
vt 0.5323 0.6236 0.0000
vt 0.4554 0.5617 0.0000
vt 0.4902 0.5899 0.0000
vt 0.3851 0.5293 0.0000
vt 0.4142 0.5423 0.0000
vt 0.3438 0.5097 0.0000
vt 0.3606 0.5174 0.0000
vt 0.3126 0.4957 0.0000
vt 0.2724 0.4802 0.0000
vt 0.2388 0.4674 0.0000
vt 0.2189 0.4604 0.0000
vt 0.4917 0.9132 0.0000
vt 0.5089 0.8855 0.0000
vt 0.5078 0.9080 0.0000
vt 0.2386 0.4292 0.0000
vt 0.2172 0.4253 0.0000
vt 0.7055 0.7624 0.0000
vt 0.6975 0.7690 0.0000
vt 0.6972 0.7509 0.0000
vt 0.6985 0.7429 0.0000
vt 0.4350 0.9285 0.0000
vt 0.4574 0.8931 0.0000
vt 0.4556 0.9232 0.0000
vt 0.5930 0.6780 0.0000
vt 0.6020 0.6609 0.0000
vt 0.5720 0.6244 0.0000
vt 0.5502 0.6379 0.0000
vt 0.5626 0.6143 0.0000
vt 0.3535 0.9420 0.0000
vt 0.4002 0.9342 0.0000
vt 0.5315 0.5815 0.0000
vt 0.5047 0.5582 0.0000
vt 0.2725 0.9377 0.0000
vt 0.3147 0.9006 0.0000
vt 0.3064 0.9405 0.0000
vt 0.4688 0.5269 0.0000
vt 0.4504 0.5594 0.0000
vt 0.4639 0.5241 0.0000
vt 0.2240 0.9339 0.0000
vt 0.2435 0.9358 0.0000
vt 0.3974 0.4884 0.0000
vt 0.3714 0.4750 0.0000
vt 0.1881 0.9281 0.0000
vt 0.3535 0.4666 0.0000
vt 0.3197 0.4509 0.0000
vt 0.1413 0.9175 0.0000
vt 0.2760 0.4387 0.0000
vt 0.1051 0.9057 0.0000
vt 0.0848 0.8980 0.0000
vt 0.5449 0.8952 0.0000
vt 0.5813 0.8827 0.0000
vt 0.6121 0.6591 0.0000
vt 0.6372 0.6899 0.0000
vt 0.6183 0.8701 0.0000
vt 0.6408 0.8629 0.0000
vt 0.6628 0.7212 0.0000
vt 0.6792 0.7385 0.0000
vt 0.6484 0.8692 0.0000
vt 0.6881 0.7384 0.0000
vt 0.1970 0.4229 0.0000
vt 0.0539 0.9021 0.0000
vt 0.0375 0.8894 0.0000
vt 0.1409 0.4303 0.0000
vt 0.1723 0.4080 0.0000
vt 0.0291 0.8425 0.0000
vt 0.6731 0.8680 0.0000
vt 0.6701 0.8582 0.0000
vt 0.6936 0.8381 0.0000
vt 0.7009 0.8476 0.0000
vt 0.6613 0.8785 0.0000
vt 0.6642 0.8709 0.0000
vt 0.7176 0.7894 0.0000
vt 0.7059 0.7929 0.0000
vt 0.5017 0.9430 0.0000
vt 0.4902 0.9273 0.0000
vt 0.5062 0.9212 0.0000
vt 0.5178 0.9345 0.0000
vt 0.2425 0.3725 0.0000
vt 0.2366 0.4051 0.0000
vt 0.2134 0.4038 0.0000
vt 0.2151 0.3730 0.0000
vt 0.7185 0.7566 0.0000
vt 0.7129 0.7571 0.0000
vt 0.7011 0.7393 0.0000
vt 0.7047 0.7392 0.0000
vt 0.4443 0.9726 0.0000
vt 0.4328 0.9478 0.0000
vt 0.4541 0.9409 0.0000
vt 0.4655 0.9629 0.0000
vt 0.6244 0.6556 0.0000
vt 0.6064 0.6509 0.0000
vt 0.6198 0.6476 0.0000
vt 0.5962 0.6045 0.0000
vt 0.5781 0.6117 0.0000
vt 0.5698 0.6004 0.0000
vt 0.5892 0.5907 0.0000
vt 0.3574 0.9926 0.0000
vt 0.3500 0.9632 0.0000
vt 0.3974 0.9544 0.0000
vt 0.4072 0.9811 0.0000
vt 0.5625 0.5488 0.0000
vt 0.5397 0.5639 0.0000
vt 0.5128 0.5396 0.0000
vt 0.5352 0.5220 0.0000
vt 0.2661 0.9995 0.0000
vt 0.2660 0.9629 0.0000
vt 0.3015 0.9646 0.0000
vt 0.3043 0.9991 0.0000
vt 0.4985 0.4859 0.0000
vt 0.4768 0.5070 0.0000
vt 0.4723 0.5037 0.0000
vt 0.4939 0.4816 0.0000
vt 0.2119 0.9958 0.0000
vt 0.2157 0.9589 0.0000
vt 0.2357 0.9611 0.0000
vt 0.2336 0.9980 0.0000
vt 0.4246 0.4323 0.0000
vt 0.4050 0.4634 0.0000
vt 0.3778 0.4488 0.0000
vt 0.3963 0.4162 0.0000
vt 0.1729 0.9920 0.0000
vt 0.1782 0.9529 0.0000
vt 0.3769 0.4062 0.0000
vt 0.3589 0.4396 0.0000
vt 0.3227 0.4239 0.0000
vt 0.3366 0.3919 0.0000
vt 0.1212 0.9739 0.0000
vt 0.1282 0.9395 0.0000
vt 0.2776 0.4122 0.0000
vt 0.2876 0.3770 0.0000
vt 0.0797 0.9561 0.0000
vt 0.0911 0.9251 0.0000
vt 0.0349 0.9231 0.0000
vt 0.0705 0.9144 0.0000
vt 0.0563 0.9417 0.0000
vt 0.5522 0.9151 0.0000
vt 0.5434 0.9055 0.0000
vt 0.5808 0.8924 0.0000
vt 0.5877 0.9030 0.0000
vt 0.6237 0.8907 0.0000
vt 0.6189 0.8791 0.0000
vt 0.6422 0.8725 0.0000
vt 0.6460 0.8859 0.0000
vt 0.6499 0.8772 0.0000
vt 0.6536 0.8872 0.0000
vt 0.1874 0.3780 0.0000
vt 0.1928 0.4056 0.0000
vt 0.1560 0.3953 0.0000
vt 0.0102 0.8449 0.0000
vt 0.0226 0.8552 0.0000
vt 0.0168 0.8921 0.0000
vt 0.6811 0.8796 0.0000
vt 0.6762 0.8766 0.0000
vt 0.7054 0.8522 0.0000
vt 0.7112 0.8601 0.0000
vt 0.6646 0.8849 0.0000
vt 0.6615 0.8830 0.0000
vt 0.7336 0.7837 -372.8148
vt 0.7236 0.7862 0.0000
vt 0.5129 0.0153 0.0000
vt 0.4802 0.0134 0.0000
vt 0.4470 0.0116 0.0000
vt 0.4294 0.0023 0.0000
vt 0.4227 0.0019 0.0000
vt 0.9950 0.2738 249.9956
vt 0.3733 0.0493 0.0000
vt 0.3624 0.0447 0.0000
vt 0.5366 0.1689 0.0000
vt 0.5095 0.1536 0.0000
vt 0.6334 0.2624 0.0000
vt 0.6097 0.2419 0.0000
vt 0.3837 0.0545 0.0000
vt 0.4570 0.4065 0.0000
vt 0.7113 0.0403 0.0000
vt 0.5797 0.2162 0.0000
vt 0.5894 0.2048 0.0000
vt 0.4326 0.6365 0.0000
vt 0.4114 0.7213 0.0000
vt 0.4073 0.7362 0.0000
vt 0.5098 0.2996 0.0000
vt 0.3478 0.9418 0.0000
vt 0.4278 0.5037 0.0000
vt 0.3444 0.9637 0.0000
vt 0.4362 0.4805 0.0000
vt 0.4261 0.1813 0.0000
vt 0.4330 0.1940 0.0000
vt 0.3998 0.2095 0.0000
vt 0.3789 0.2196 0.0000
vt 0.5246 0.0343 0.0000
vt 0.5303 0.0152 0.0000
vt 0.5131 0.0753 0.0000
vt 0.4920 0.1215 0.0000
vt 0.4819 0.1129 0.0000
vt 0.5765 0.7174 0.0000
vt 0.5658 0.7616 0.0000
vt 0.4746 0.1214 0.0000
vt 0.4839 0.1305 0.0000
vt 0.5631 0.7726 0.0000
vt 0.5393 0.8457 0.0000
vt 0.5864 0.6712 0.0000
vt 0.5279 0.8814 0.0000
vt 0.5268 0.9016 0.0000
vt 0.5831 0.6376 0.0000
vt 0.5253 0.9132 0.0000
vt 0.5886 0.6256 0.0000
vt 0.4179 0.1664 0.0000
vt 0.3932 0.1920 0.0000
vt 0.3757 0.2012 0.0000
vt 0.4972 0.0696 0.0000
vt 0.4701 0.1028 0.0000
vt 0.4636 0.1105 0.0000
vt 0.5959 0.6533 0.0000
vt 0.6007 0.6427 0.0000
vt 0.5215 0.0153 0.0000
vt 0.5830 0.7223 0.0000
vt 0.5730 0.7634 0.0000
vt 0.5705 0.7738 0.0000
vt 0.5359 0.8984 0.0000
vt 0.5343 0.9094 0.0000
vt 0.6483 0.6845 0.0000
vt 0.6726 0.7139 0.0000
vt 0.6891 0.7291 0.0000
vt 0.6963 0.7318 0.0000
vt 0.1243 0.4320 0.0000
vt 0.3512 0.9939 0.0000
vt 0.4568 0.4527 0.0000
vt 0.5357 0.9242 0.0000
vt 0.6055 0.6205 0.0000
vt 0.6153 0.6391 0.0000
vt 0.5440 0.9194 0.0000
vt 0.3957 0.2705 0.0000
vt 0.5801 0.0169 0.0000
vt 0.5389 0.6927 0.0000
vt 0.5252 0.7517 0.0000
vt 0.5220 0.7638 0.0000
vt 0.4412 0.2043 0.0000
vt 0.5018 0.1297 0.0000
vt 0.4783 0.9169 0.0000
vt 0.5464 0.5969 0.0000
vt 0.4773 0.9325 0.0000
vt 0.4886 0.9510 0.0000
vt 0.5544 0.5810 0.0000
vt 0.5756 0.5683 0.0000
vt 0.4934 0.1393 0.0000
vt 0.8227 0.5045 0.0000
vt 0.7989 0.5398 0.0000
vt 0.8608 0.4597 0.0000
vt 0.8659 0.4530 0.0000
vt 0.8988 0.4189 0.0000
vt 0.9357 0.3864 0.0000
vt 0.9507 0.3802 0.0000
vt 0.0771 0.5146 0.0000
vt 0.0683 0.5176 0.0000
vt 0.0769 0.5228 0.0000
vt 0.0780 0.5373 0.0000
vt 0.0654 0.5823 0.0000
vt 0.0516 0.6280 0.0000
vt 0.0490 0.6363 0.0000
vt 0.0349 0.6944 0.0000
vt 0.0236 0.7328 0.0000
vt 0.0157 0.7444 0.0000
vt 0.0114 0.7516 0.0000
vt 0.0053 0.7444 0.0000
vt 0.7942 0.5549 0.0000
vt 0.8592 0.4939 0.0000
vt 0.8483 0.5093 0.0000
vt 0.8775 0.4739 0.0000
vt 0.8799 0.4708 0.0000
vt 0.8945 0.4545 0.0000
vt 0.9106 0.4396 0.0000
vt 0.9174 0.4370 0.0000
vt 0.0440 0.5720 0.0000
vt 0.0400 0.5742 0.0000
vt 0.0442 0.5761 0.0000
vt 0.0454 0.5831 0.0000
vt 0.0400 0.6051 0.0000
vt 0.0337 0.6267 0.0000
vt 0.0321 0.6308 0.0000
vt 0.0255 0.6591 0.0000
vt 0.0193 0.6775 0.0000
vt 0.0150 0.6829 0.0000
vt 0.0125 0.6863 0.0000
vt 0.0102 0.6823 0.0000
vt 0.8464 0.5162 0.0000
vt 0.8872 0.4820 0.0000
vt 0.0204 0.6273 0.0000
vt 0.0829 0.2618 23.9028
vt 0.0447 0.2810 0.0000
vt 0.0369 0.2821 0.0000
vt 0.0584 0.2518 0.0000
vt 0.0496 0.2941 -23.9028
vt 0.0198 0.2929 0.0000
vt 0.0308 0.3067 0.0000
vt 0.0678 0.3060 0.0000
vt 0.0351 0.2490 12.2937
vt 0.0198 0.2267 -12.2937
vt 0.0275 0.2213 -12.2937
vt 0.0432 0.2465 -12.2937
vt 0.0350 0.2517 23.9028
vt 0.0203 0.2868 0.0000
vt 0.0473 0.2932 0.0000
vt 0.0783 0.2845 0.0000
vt 0.0387 0.2177 -12.2937
vt 0.0625 0.2460 -12.2937
vt 0.0843 0.2387 12.2937
vt 0.0475 0.2129 -12.2937
vt 0.0499 0.2097 -12.2937
vt 0.0456 0.2828 0.0000
vt 0.0776 0.1922 -12.2937
vt 0.0519 0.1841 -12.2937
vt 0.0490 0.2007 -12.2937
vt 0.0838 0.2155 -12.2937
vt 0.0478 0.2870 0.0000
vt 0.0459 0.2156 -12.2937
vt 0.0410 0.2878 0.0000
vt 0.0368 0.2909 0.0000
vt 0.0300 0.2959 0.0000
vt 0.0276 0.2011 -12.2937
vt 0.0375 0.2067 -12.2937
vt 0.0408 0.2085 -12.2937
vt 0.1749 0.0616 -0.0330
vt 0.1749 0.0639 -0.0330
vt 0.1600 0.0632 -0.0330
vt 0.1599 0.0608 -0.0330
vt 0.1849 0.0631 -0.0330
vt 0.1848 0.0638 -0.0330
vt 0.1823 0.0638 -0.0330
vt 0.1823 0.0628 -0.0330
vt 0.2315 0.1027 -0.0330
vt 0.1866 0.1210 -0.0330
vt 0.1624 0.0820 -0.0330
vt 0.1840 0.0815 -0.0330
vt 0.1182 0.0795 0.0330
vt 0.1165 0.0418 -0.0330
vt 0.1390 0.0583 -0.0330
vt 0.1382 0.0644 -0.0330
vt 0.1167 0.0295 -0.0330
vt 0.1411 0.0535 -0.0330
vt 0.2352 0.0280 -0.0330
vt 0.2630 0.0459 -0.0330
vt 0.1933 0.0537 -0.0330
vt 0.1858 0.0451 -0.0330
vt 0.2797 0.0566 -0.0330
vt 0.2783 0.0785 0.0252
vt 0.1853 0.0640 -0.0330
vt 0.1854 0.0629 -0.0330
vt 0.2607 0.0876 -0.0330
vt 0.1923 0.0737 -0.0330
vt 0.1388 0.0635 -0.0330
vt 0.1410 0.0624 -0.0330
vt 0.1400 0.0699 -0.0330
vt 0.1396 0.0596 -0.0330
vt 0.1641 0.0427 -0.0330
vt 0.1406 0.0607 -0.0330
vt 0.1179 0.0905 -0.0330
vt 0.1918 0.0053 -0.0330
vt 0.1889 0.2575 0.0000
vt 0.1886 0.2609 0.0000
vt 0.1858 0.2597 0.0000
vt 0.1862 0.2579 0.0000
vt 0.2231 0.2798 0.0010
vt 0.1954 0.2882 0.0000
vt 0.1862 0.2604 0.0000
vt 0.1925 0.2637 0.0000
vt 0.1697 0.2632 -0.0010
vt 0.1713 0.2490 0.0000
vt 0.1837 0.2581 0.0000
vt 0.1835 0.2586 0.0000
vt 0.1731 0.2414 0.0000
vt 0.1840 0.2579 0.0000
vt 0.2289 0.2530 0.0000
vt 0.1932 0.2561 0.0000
vt 0.1843 0.2589 0.0000
vt 0.1845 0.2582 0.0000
vt 0.1720 0.2782 0.0000
vt 0.1843 0.2593 0.0000
vt 0.2047 0.2324 0.0000
vt 0.1867 0.2573 0.0000
vt 0.1780 0.2347 0.0000
vt 0.1846 0.2578 0.0000
vt 0.1839 0.2586 0.0000
vt 0.1840 0.2582 0.0000
vt 0.1696 0.2708 0.0000
vt 0.1837 0.2590 0.0000
vt 0.1837 0.2586 0.0000
vt 0.1838 0.2582 0.0000
vt 0.5486 0.9493 0.0147
vt 0.5493 0.9515 0.0147
vt 0.5478 0.9520 0.0147
vt 0.5473 0.9493 0.0147
vt 0.6320 0.9229 -0.0147
vt 0.6352 0.9505 0.0147
vt 0.5669 0.9540 0.0147
vt 0.5647 0.9410 0.0147
vt 0.5901 0.9802 0.0147
vt 0.5549 0.9621 0.0147
vt 0.5239 0.9723 0.0147
vt 0.5223 0.9376 0.0080
vt 0.5390 0.9480 0.0147
vt 0.5411 0.9563 0.0147
vt 0.5788 0.9088 0.0147
vt 0.5504 0.9374 0.0147
vt 0.5514 0.9519 0.0147
vt 0.5505 0.9482 0.0147
vt 0.5447 0.9540 0.0147
vt 0.5490 0.9546 0.0147
vt 0.5435 0.9489 0.0147
vt 0.5472 0.9466 0.0147
vt 0.5458 0.9531 0.0147
vt 0.5448 0.9492 0.0147
vt 0.2047 0.1744 0.0000
vt 0.2055 0.1758 0.0000
vt 0.2026 0.1777 0.0000
vt 0.2016 0.1753 0.0000
vt 0.1897 0.1814 0.0000
vt 0.1919 0.1794 0.0000
vt 0.1934 0.1825 0.0000
vt 0.1904 0.1830 0.0000
vt 0.2713 0.1368 -0.0475
vt 0.2755 0.1462 0.0000
vt 0.2173 0.1731 0.0000
vt 0.2148 0.1673 0.0000
vt 0.2614 0.2101 0.0000
vt 0.2125 0.1880 0.0000
vt 0.1897 0.2248 0.0000
vt 0.1709 0.2026 0.0000
vt 0.1873 0.1864 0.0000
vt 0.1924 0.1915 0.0000
vt 0.1635 0.1816 0.0475
vt 0.1849 0.1814 0.0000
vt 0.1605 0.1549 0.0000
vt 0.1846 0.1742 0.0000
vt 0.1707 0.1303 0.0000
vt 0.1886 0.1672 0.0000
vt 0.2070 0.1757 0.0000
vt 0.2057 0.1734 0.0000
vt 0.1934 0.1837 0.0000
vt 0.1977 0.1825 0.0000
vt 0.2004 0.1932 0.0000
vt 0.1903 0.1832 0.0000
vt 0.1894 0.1814 0.0000
vt 0.1911 0.1787 0.0000
vt 0.2010 0.1738 0.0000
vt 0.2002 0.1613 0.0000
vt 0.1974 0.1809 0.0000
vt 0.1957 0.1774 0.0000
vt 0.2171 0.2335 0.0000
vt 0.2145 0.1116 0.0000
vt 0.2035 0.1792 0.0000
vt 0.1947 0.1761 0.0000
vt 0.0518 0.0713 0.0000
vt 0.0524 0.0714 0.0000
vt 0.0531 0.0784 0.0000
vt 0.0508 0.0782 0.0000
vt 0.0520 0.0700 0.0000
vt 0.0522 0.0700 0.0000
vt 0.0523 0.0704 0.0000
vt 0.0520 0.0703 0.0000
vt 0.0517 0.1098 0.0000
vt 0.0511 0.1098 0.0000
vt 0.0510 0.1076 0.0000
vt 0.0519 0.1077 0.0000
vt 0.0531 0.0912 0.0000
vt 0.0502 0.0912 0.0000
vt 0.0502 0.0853 0.0000
vt 0.0534 0.0856 0.0000
vt 0.0502 0.0822 0.0000
vt 0.0533 0.0825 0.0000
vt 0.0485 0.0055 -0.6073
vt 0.0584 0.0053 0.0000
vt 0.0524 0.0693 0.0000
vt 0.0519 0.0693 0.0000
vt 0.0659 0.0130 0.0000
vt 0.0531 0.0696 0.0000
vt 0.0787 0.0322 0.0000
vt 0.0951 0.0536 0.0000
vt 0.0572 0.0777 0.0000
vt 0.0541 0.0714 0.0000
vt 0.1008 0.0695 0.0000
vt 0.0584 0.0819 0.0000
vt 0.1034 0.0793 0.0000
vt 0.0588 0.0855 0.0000
vt 0.1028 0.0997 0.0000
vt 0.0586 0.0915 0.0000
vt 0.0974 0.1756 0.0000
vt 0.0553 0.1081 0.0000
vt 0.0559 0.1811 0.0000
vt 0.0444 0.1806 0.6073
vt 0.0509 0.1121 0.0000
vt 0.0518 0.1121 0.0000
vt 0.0031 0.1737 0.0000
vt 0.0475 0.1080 0.0000
vt 0.0005 0.0976 0.0000
vt 0.0008 0.0771 0.0000
vt 0.0447 0.0851 0.0000
vt 0.0448 0.0913 0.0000
vt 0.0038 0.0672 0.0000
vt 0.0453 0.0815 0.0000
vt 0.0105 0.0514 0.0000
vt 0.0467 0.0773 0.0000
vt 0.0283 0.0311 0.0000
vt 0.0502 0.0712 0.0000
vt 0.0411 0.0128 0.0000
vt 0.0512 0.0696 0.0000
# 822 texture coords

g fish_body006
usemtl wire_027177148
s 1
f 1/1/1 2/2/2 3/3/3 4/4/4 
f 5/5/5 6/6/6 7/7/7 8/8/8 
f 1/1/1 4/4/4 9/9/9 10/10/10 
f 11/11/11 12/12/12 13/13/13 14/14/14 
f 15/15/15 16/16/16 17/17/17 18/18/18 
f 19/19/19 20/20/20 21/21/21 22/22/22 
f 23/23/23 24/24/24 25/25/25 26/26/26 
f 27/27/27 28/28/28 29/29/29 30/30/30 
f 19/19/19 31/31/31 32/32/32 33/33/33 
f 34/34/34 35/35/35 36/36/36 37/37/37 
f 34/34/34 38/38/38 39/39/39 40/40/40 
f 41/41/41 42/42/42 43/43/43 44/44/44 
f 45/45/45 46/46/46 47/47/47 48/48/48 
f 49/49/49 38/38/38 50/50/50 51/51/51 
f 49/49/49 52/52/52 53/53/53 54/54/54 
f 55/55/55 56/56/56 57/57/57 58/58/58 
f 59/59/59 60/60/60 61/61/61 62/62/62 
f 63/63/63 64/64/64 65/65/65 66/66/66 
f 63/63/63 67/67/67 68/68/68 69/69/69 
f 70/70/70 71/71/71 72/72/72 73/73/73 
f 74/74/74 75/75/75 76/76/76 77/77/77 
f 78/78/78 67/67/67 79/79/79 80/80/80 
f 78/78/78 81/81/81 82/82/82 83/83/83 
f 84/84/84 85/85/85 86/86/86 87/87/87 
f 88/88/88 89/89/89 90/90/90 91/91/91 
f 81/81/81 78/78/78 80/80/80 92/92/92 
f 81/81/81 93/93/93 94/94/94 82/82/82 
f 85/85/85 95/95/95 96/96/96 86/86/86 
f 89/89/89 97/97/97 98/98/98 90/90/90 
f 93/93/93 81/81/81 92/92/92 99/99/99 
f 93/93/93 11/100/100 11/101/101 100/102/102 94/94/94 
f 95/95/95 101/103/103 102/104/104 96/96/96 
f 97/97/97 103/105/105 104/106/106 105/107/107 98/98/98 
f 11/100/100 93/93/93 99/99/99 12/12/12 11/11/11 
f 106/108/108 107/109/109 108/110/110 14/111/111 
f 101/103/103 109/112/112 110/113/113 102/104/104 
f 111/114/114 112/115/115 113/116/116 114/117/117 
f 115/118/118 116/119/119 117/120/120 118/121/121 
f 1/1/1 10/10/10 119/122/122 120/123/123 
f 5/5/5 8/8/8 121/124/124 122/125/125 
f 123/126/126 124/127/127 125/128/128 126/129/129 
f 127/130/130 128/131/131 129/132/132 130/133/133 
f 131/134/134 132/135/135 133/136/136 134/137/137 
f 135/138/138 136/139/139 137/140/140 138/141/141 
f 139/142/142 140/143/143 141/144/144 142/145/145 
f 130/133/133 129/132/132 143/146/146 144/147/147 
f 134/137/137 133/136/136 145/148/148 146/149/149 
f 138/141/141 137/140/140 147/150/150 148/151/151 
f 142/145/145 141/144/144 149/152/152 150/153/153 
f 151/154/154 152/155/155 153/156/156 111/114/114 
f 154/157/157 155/158/158 156/159/159 106/108/108 
f 157/160/160 158/161/161 159/162/162 160/163/163 
f 161/164/164 162/165/165 163/166/166 164/167/167 
f 156/159/159 165/168/168 166/169/169 167/170/170 
f 160/163/163 168/171/171 169/172/172 170/173/173 
f 164/167/167 171/174/174 172/175/175 173/176/176 
f 153/156/156 174/177/177 175/178/178 176/179/179 
f 177/180/180 116/119/119 178/181/181 179/182/182 
f 180/183/183 181/184/184 182/185/185 183/186/186 
f 184/187/187 185/188/188 186/189/189 187/190/190 
f 188/191/191 189/192/192 190/193/193 191/194/194 
f 192/195/195 193/196/196 194/197/197 195/198/198 
f 196/199/199 197/200/200 198/201/201 199/202/202 
f 200/203/203 201/204/204 202/205/205 203/206/206 
f 204/207/207 205/208/208 206/209/209 207/210/210 
f 208/211/211 209/212/212 201/204/204 200/203/203 
f 210/213/213 211/214/214 205/208/208 204/207/207 
f 212/215/215 213/216/216 209/212/212 208/211/211 
f 214/217/217 215/218/218 211/214/214 210/213/213 
f 216/219/219 217/220/220 213/216/216 212/215/215 
f 218/221/221 219/222/222 215/218/218 214/217/217 
f 220/223/223 221/224/224 222/225/225 223/226/226 
f 224/227/227 158/161/161 225/228/228 226/229/229 
f 177/180/180 227/230/230 228/231/231 229/232/232 
f 230/233/233 231/234/234 232/235/235 233/236/236 
f 234/237/237 235/238/238 236/239/239 237/240/240 
f 238/241/241 239/242/242 240/243/243 241/244/244 
f 241/244/244 240/243/243 242/245/245 243/246/246 
f 220/223/223 107/109/109 167/170/170 244/247/247 
f 224/227/227 245/248/248 246/249/249 247/250/250 
f 248/251/251 249/252/252 250/253/253 244/247/247 
f 251/254/254 252/255/255 159/162/162 247/250/250 
f 2/2/2 227/230/230 253/256/256 3/3/3 
f 26/26/26 254/257/257 255/258/258 256/259/259 
f 44/44/44 257/260/260 258/261/261 259/262/262 
f 58/58/58 260/263/263 261/264/264 43/43/43 
f 73/73/73 262/265/265 263/266/266 264/267/267 
f 87/87/87 265/268/268 266/269/269 72/72/72 
f 86/86/86 267/270/270 265/268/268 87/87/87 
f 96/96/96 268/271/271 267/270/270 86/86/86 
f 102/104/104 269/272/272 268/271/271 96/96/96 
f 270/273/273 245/248/248 271/274/274 110/113/113 
f 8/8/8 272/275/275 273/276/276 121/124/124 
f 136/139/139 274/277/277 275/278/278 137/140/140 
f 137/140/140 275/278/278 276/279/279 147/150/150 
f 151/154/154 221/224/224 250/253/253 152/155/155 
f 172/175/175 277/280/280 246/249/249 173/176/176 
f 278/281/281 279/282/282 280/283/283 281/284/284 
f 282/285/285 45/45/45 283/286/286 284/287/287 
f 285/288/288 59/59/59 46/46/46 286/289/289 
f 287/290/290 74/74/74 288/291/291 289/292/292 
f 290/293/293 88/88/88 75/75/75 291/294/294 
f 292/295/295 89/89/89 88/88/88 290/293/293 
f 293/296/296 97/97/97 89/89/89 292/295/295 
f 294/297/297 103/298/298 103/105/105 97/97/97 293/296/296 
f 151/154/154 111/114/114 114/299/299 295/300/300 
f 2/2/2 1/1/1 120/123/123 296/301/301 
f 297/302/302 131/134/134 134/137/137 298/303/303 
f 298/303/303 134/137/137 146/149/149 299/304/304 
f 270/273/273 161/164/164 164/167/167 173/176/176 
f 300/305/305 174/177/177 153/156/156 152/155/155 
f 16/16/16 301/306/306 302/307/307 17/17/17 
f 40/40/40 303/308/308 304/309/309 305/310/310 
f 54/54/54 188/191/191 191/194/194 39/39/39 
f 69/69/69 306/311/311 307/312/312 308/313/313 
f 83/83/83 200/203/203 203/206/206 68/68/68 
f 82/82/82 208/211/211 200/203/203 83/83/83 
f 94/94/94 212/215/215 208/211/211 82/82/82 
f 100/102/102 216/219/219 212/215/215 94/94/94 
f 107/109/109 220/223/223 223/226/226 108/110/110 
f 116/119/119 177/180/180 229/232/232 117/120/120 
f 128/131/131 234/237/237 237/240/240 129/132/132 
f 129/132/132 237/240/240 309/314/314 143/146/146 
f 158/161/161 224/227/227 247/250/250 159/162/162 
f 166/169/169 248/251/251 244/247/247 167/170/170 
f 116/119/119 115/118/118 310/315/315 178/181/181 
f 181/184/184 311/316/316 312/317/317 182/185/185 
f 185/188/188 313/318/318 314/319/319 186/189/189 
f 193/196/196 315/320/320 316/321/321 194/197/197 
f 197/200/200 317/322/322 318/323/323 198/201/201 
f 205/208/208 319/324/324 320/325/325 206/209/209 
f 211/214/214 321/326/326 319/324/324 205/208/208 
f 215/218/218 322/327/327 321/326/326 211/214/214 
f 219/222/222 323/328/328 322/327/327 215/218/218 
f 158/161/161 157/160/160 324/329/329 225/228/228 
f 231/234/234 123/126/126 126/129/129 232/235/235 
f 239/242/242 139/142/142 142/145/145 240/243/243 
f 240/243/243 142/145/145 150/153/153 242/245/245 
f 107/109/109 106/108/108 156/159/159 167/170/170 
f 252/255/255 168/171/171 160/163/163 159/162/162 
f 325/330/330 23/23/23 326/331/331 327/332/332 
f 328/333/333 323/328/328 324/329/329 329/334/334 
f 330/335/335 331/336/336 332/337/337 333/338/338 
f 334/339/339 41/41/41 335/340/340 336/341/341 
f 124/127/127 123/126/126 337/342/342 338/343/343 
f 339/344/344 311/316/316 340/345/345 341/346/346 
f 342/347/347 55/55/55 42/42/42 343/348/348 
f 344/349/349 313/318/318 316/321/321 345/350/350 
f 346/351/351 70/70/70 347/352/352 348/353/353 
f 349/354/354 315/320/320 350/355/355 351/356/356 
f 352/357/357 84/84/84 71/71/71 353/358/358 
f 354/359/359 317/322/322 320/325/325 355/360/360 
f 356/361/361 85/85/85 84/84/84 352/357/357 
f 357/362/362 319/324/324 321/326/326 358/363/363 
f 359/364/364 95/95/95 85/85/85 356/361/361 
f 358/363/363 321/326/326 322/327/327 360/365/365 
f 361/366/366 101/103/103 95/95/95 359/364/364 
f 360/365/365 322/327/327 323/328/328 328/333/333 
f 162/165/165 161/164/164 109/112/112 362/367/367 
f 363/368/368 5/5/5 122/125/125 364/369/369 
f 124/127/127 365/370/370 366/371/371 125/128/128 
f 367/372/372 135/138/138 138/141/141 368/373/373 
f 140/143/143 369/374/374 370/375/375 141/144/144 
f 368/373/373 138/141/141 148/151/151 371/376/376 
f 141/144/144 370/375/375 372/377/377 149/152/152 
f 373/378/378 157/160/160 160/163/163 170/173/173 
f 162/165/165 374/379/379 375/380/380 163/166/166 
f 169/172/172 376/381/381 377/382/382 170/173/173 
f 378/383/383 171/174/174 164/167/167 163/166/166 
f 379/384/384 380/385/385 381/386/386 382/387/387 
f 383/388/388 384/389/389 380/385/385 379/384/384 
f 385/390/390 386/391/391 331/336/336 330/335/335 
f 30/392/30 387/393/392 388/394/393 389/395/394 
f 12/396/12 390/397/395 391/398/396 13/399/13 
f 17/400/17 392/401/17 393/402/397 18/403/18 
f 48/404/48 394/405/398 395/406/399 396/407/400 
f 397/408/401 365/370/370 398/409/402 399/410/403 
f 33/411/33 400/412/404 401/413/405 402/414/406 
f 62/415/62 403/416/407 404/417/408 47/418/47 
f 37/419/37 405/420/409 406/421/410 50/422/50 
f 77/423/77 407/424/411 408/425/412 409/426/413 
f 51/427/51 410/428/414 411/429/415 412/430/416 
f 91/431/91 413/432/417 414/433/418 76/434/76 
f 66/435/66 415/436/419 416/437/420 79/438/79 
f 90/439/90 417/440/421 413/432/417 91/431/91 
f 80/441/80 418/442/422 419/443/423 92/444/92 
f 98/445/98 420/446/424 417/440/421 90/439/90 
f 92/444/92 419/443/423 421/447/425 99/448/99 
f 105/449/107 422/450/426 420/446/424 98/445/98 
f 99/448/99 421/447/425 390/397/395 12/396/12 
f 112/451/115 374/379/379 423/452/427 113/453/116 
f 10/454/10 424/455/428 425/456/429 119/457/122 
f 132/458/135 426/459/430 427/460/431 133/461/136 
f 133/461/136 427/460/431 428/462/432 145/463/148 
f 154/464/157 429/465/433 377/382/382 155/466/158 
f 175/467/178 430/468/434 375/380/380 176/469/179 
f 281/470/284 431/471/284 432/472/435 433/473/436 
f 280/474/283 434/475/437 431/471/284 281/470/284 
f 302/476/307 435/477/438 392/401/17 17/400/17 
f 397/478/401 115/118/118 118/121/121 436/479/439 
f 437/480/440 127/130/130 130/133/133 438/481/441 
f 438/481/441 130/133/133 144/147/147 439/482/442 
f 112/115/115 111/114/114 153/156/156 176/179/179 
f 440/483/443 165/168/168 156/159/159 155/158/158 
f 441/484/444 278/281/281 281/284/284 433/485/436 
f 442/486/445 282/285/285 284/287/287 443/487/446 
f 189/192/192 285/288/288 286/289/289 190/193/193 
f 444/488/447 287/290/290 289/292/292 445/489/448 
f 201/204/204 290/293/293 291/294/294 202/205/205 
f 209/212/212 292/295/295 290/293/293 201/204/204 
f 213/216/216 293/296/296 292/295/295 209/212/212 
f 217/220/220 294/297/297 293/296/296 213/216/216 
f 221/224/224 151/154/154 295/300/300 222/225/225 
f 227/230/230 2/2/2 296/301/301 228/231/231 
f 235/238/238 297/302/302 298/303/303 236/239/239 
f 236/239/239 298/303/303 299/304/304 446/490/449 
f 245/248/248 270/273/273 173/176/176 246/249/249 
f 249/252/252 300/305/305 152/155/155 250/253/253 
f 227/230/230 177/180/180 179/182/182 253/256/256 
f 257/260/260 184/187/187 187/190/190 258/261/261 
f 260/263/263 192/195/195 195/198/198 261/264/264 
f 267/270/270 210/213/213 204/207/207 265/268/268 
f 268/271/271 214/217/217 210/213/213 267/270/270 
f 269/272/272 218/221/221 214/217/217 268/271/271 
f 245/248/248 224/227/227 226/229/229 271/274/274 
f 272/275/275 230/233/233 233/236/236 273/276/276 
f 274/277/277 238/241/241 241/244/244 275/278/278 
f 221/224/224 220/223/223 244/247/247 250/253/253 
f 277/280/280 251/254/254 247/250/250 246/249/249 
f 67/67/67 78/78/78 83/83/83 68/68/68 
f 71/71/71 84/84/84 87/87/87 72/72/72 
f 75/75/75 88/88/88 91/91/91 76/76/76 
f 67/67/67 63/63/63 66/66/66 79/79/79 
f 202/205/205 444/488/447 306/311/311 203/206/206 
f 206/209/209 197/200/200 196/199/199 207/210/210 
f 266/269/269 262/265/265 73/73/73 72/72/72 
f 75/75/75 74/74/74 287/290/290 291/294/294 
f 203/206/206 306/311/311 69/69/69 68/68/68 
f 320/325/325 317/322/322 197/200/200 206/209/209 
f 71/71/71 70/70/70 346/351/351 353/358/358 
f 320/325/325 319/324/324 357/362/362 355/360/360 
f 353/358/358 346/351/351 407/424/411 414/433/418 
f 355/360/360 357/362/362 418/442/422 416/437/420 
f 291/294/294 287/290/290 444/488/447 202/205/205 
f 52/52/52 64/64/64 308/313/313 53/53/53 
f 56/56/56 347/352/352 264/267/267 57/57/57 
f 60/60/60 288/291/291 409/491/413 61/61/61 
f 52/52/52 49/49/49 51/51/51 412/492/416 
f 447/493/450 189/192/192 188/191/191 448/494/451 
f 449/495/452 193/196/196 192/195/195 450/496/453 
f 451/497/454 260/263/263 58/58/58 57/57/57 
f 60/60/60 59/59/59 285/288/288 452/498/455 
f 448/494/451 188/191/191 54/54/54 53/53/53 
f 350/355/355 315/320/320 193/196/196 449/495/452 
f 56/56/56 55/55/55 342/347/347 453/499/456 
f 350/355/355 318/323/323 454/500/457 351/356/356 
f 453/499/456 342/347/347 403/416/407 455/501/458 
f 351/356/356 454/500/457 456/502/459 411/429/415 
f 452/498/455 285/288/288 189/192/192 447/493/450 
f 457/503/460 458/504/461 27/27/27 459/505/462 
f 326/331/331 23/23/23 26/26/26 256/259/259 
f 459/505/462 27/27/27 30/30/30 389/506/394 
f 31/31/31 460/507/463 461/508/464 32/32/32 
f 462/509/465 22/22/22 463/510/466 464/511/467 
f 182/185/185 465/512/468 466/513/469 183/186/186 
f 467/514/470 468/515/471 458/504/461 457/503/460 
f 255/258/258 469/516/472 470/517/473 256/259/259 
f 31/31/31 19/19/19 22/22/22 462/509/465 
f 312/317/317 471/518/474 465/512/468 182/185/185 
f 326/331/331 472/519/475 473/520/476 327/332/332 
f 312/317/317 311/316/316 339/344/344 474/521/477 
f 327/332/332 473/520/476 475/522/478 388/394/393 
f 474/521/477 339/344/344 400/412/404 476/523/479 
f 477/524/480 457/503/460 459/505/462 478/525/481 
f 472/519/475 326/331/331 256/259/259 470/517/473 
f 478/525/481 459/505/462 389/506/394 479/526/482 
f 480/527/483 462/509/465 464/511/467 481/528/484 
f 482/529/485 467/514/470 457/503/460 477/524/480 
f 460/507/463 31/31/31 462/509/465 480/527/483 
f 471/518/474 312/317/317 474/521/477 483/530/486 
f 483/530/486 474/521/477 476/523/479 484/531/487 
f 481/528/484 464/511/467 467/514/470 482/529/485 
f 460/507/463 310/315/315 399/532/403 461/508/464 
f 465/512/468 485/533/488 486/534/489 466/513/469 
f 469/516/472 487/535/490 7/7/7 470/517/473 
f 471/518/474 337/342/342 485/533/488 465/512/468 
f 472/519/475 6/6/6 488/536/491 473/520/476 
f 473/520/476 488/536/491 489/537/492 475/522/478 
f 3/3/3 477/524/480 478/525/481 4/4/4 
f 6/6/6 472/519/475 470/517/473 7/7/7 
f 4/4/4 478/525/481 479/526/482 9/9/9 
f 178/181/181 480/527/483 481/528/484 179/182/182 
f 253/256/256 482/529/485 477/524/480 3/3/3 
f 310/315/315 460/507/463 480/527/483 178/181/181 
f 337/342/342 471/518/474 483/530/486 338/343/343 
f 338/343/343 483/530/486 484/531/487 398/409/402 
f 179/182/182 481/528/484 482/529/485 253/256/256 
f 310/315/315 115/118/118 397/478/401 399/532/403 
f 485/533/488 231/234/234 230/233/233 486/534/489 
f 487/535/490 272/275/275 8/8/8 7/7/7 
f 337/342/342 123/126/126 231/234/234 485/533/488 
f 6/6/6 5/5/5 363/368/368 488/536/491 
f 488/536/491 363/368/368 424/455/428 489/537/492 
f 64/64/64 52/52/52 412/492/416 65/65/65 
f 198/201/201 449/495/452 450/496/453 199/202/202 
f 263/266/266 451/497/454 57/57/57 264/267/267 
f 288/291/291 60/60/60 452/498/455 289/292/292 
f 307/312/312 448/494/451 53/53/53 308/313/313 
f 318/323/323 350/355/355 449/495/452 198/201/201 
f 347/352/352 56/56/56 453/499/456 348/353/353 
f 348/353/353 453/499/456 455/501/458 408/425/412 
f 289/292/292 452/498/455 447/493/450 445/489/448 
f 64/64/64 63/63/63 69/69/69 308/313/313 
f 347/352/352 70/70/70 73/73/73 264/267/267 
f 288/291/291 74/74/74 77/77/77 409/491/413 
f 318/323/323 317/322/322 354/359/359 454/500/457 
f 454/500/457 354/359/359 415/436/419 456/502/459 
f 365/370/370 397/408/401 436/538/439 366/371/371 
f 369/374/374 437/539/440 438/540/441 370/375/375 
f 370/375/375 438/540/441 439/541/442 372/377/377 
f 374/379/379 112/451/115 176/469/179 375/380/380 
f 376/381/381 440/542/443 155/466/158 377/382/382 
f 387/393/392 325/330/330 327/332/332 388/394/393 
f 390/397/395 328/333/333 329/334/334 391/398/396 
f 392/401/17 330/335/335 333/338/338 393/402/397 
f 394/405/398 334/339/339 336/341/341 395/406/399 
f 365/370/370 124/127/127 338/343/343 398/409/402 
f 400/412/404 339/344/344 341/346/346 401/413/405 
f 403/416/407 342/347/347 343/348/348 404/417/408 
f 405/420/409 344/349/349 345/350/350 406/421/410 
f 407/424/411 346/351/351 348/353/353 408/425/412 
f 410/428/414 349/354/354 351/356/356 411/429/415 
f 413/432/417 352/357/357 353/358/358 414/433/418 
f 415/436/419 354/359/359 355/360/360 416/437/420 
f 417/440/421 356/361/361 352/357/357 413/432/417 
f 418/442/422 357/362/362 358/363/363 419/443/423 
f 420/446/424 359/364/364 356/361/361 417/440/421 
f 419/443/423 358/363/363 360/365/365 421/447/425 
f 422/450/426 361/366/366 359/364/364 420/446/424 
f 421/447/425 360/365/365 328/333/333 390/397/395 
f 374/379/379 162/165/165 362/367/367 423/452/427 
f 424/455/428 363/368/368 364/369/369 425/456/429 
f 426/459/430 367/372/372 368/373/373 427/460/431 
f 427/460/431 368/373/373 371/376/376 428/462/432 
f 429/465/433 373/378/378 170/173/173 377/382/382 
f 430/468/434 378/383/383 163/166/166 375/380/380 
f 431/471/284 379/384/384 382/387/387 432/472/435 
f 434/475/437 383/388/388 379/384/384 431/471/284 
f 435/477/438 385/390/390 330/335/335 392/401/17 
f 407/424/411 77/423/77 76/434/76 414/433/418 
f 418/442/422 80/441/80 79/438/79 416/437/420 
f 403/416/407 62/415/62 61/543/61 455/501/458 
f 456/502/459 65/544/65 412/430/416 411/429/415 
f 475/522/478 479/545/482 389/395/394 388/394/393 
f 400/412/404 33/411/33 32/546/32 476/523/479 
f 476/523/479 32/546/32 461/547/464 484/531/487 
f 489/537/492 9/548/9 479/545/482 475/522/478 
f 484/531/487 461/547/464 399/410/403 398/409/402 
f 424/455/428 10/454/10 9/548/9 489/537/492 
f 455/501/458 61/543/61 409/426/413 408/425/412 
f 415/436/419 66/435/66 65/544/65 456/502/459 
f 35/35/35 34/34/34 40/40/40 305/310/310 
f 335/340/340 41/41/41 44/44/44 259/262/262 
f 283/286/286 45/45/45 48/48/48 396/549/400 
f 35/35/35 20/20/20 402/550/406 36/36/36 
f 186/189/189 490/551/493 491/552/494 187/190/190 
f 258/261/261 492/553/495 25/25/25 259/262/262 
f 283/286/286 28/28/28 493/554/496 284/287/287 
f 304/309/309 494/555/497 21/21/21 305/310/310 
f 314/319/319 340/345/345 490/551/493 186/189/189 
f 335/340/340 24/24/24 495/556/498 336/341/341 
f 314/319/319 313/318/318 344/349/349 496/557/499 
f 395/406/399 497/558/500 29/559/29 396/407/400 
f 498/560/501 405/420/409 37/419/37 36/561/36 
f 284/287/287 493/554/496 499/562/502 443/487/446 
f 187/190/190 491/552/494 492/553/495 258/261/261 
f 336/341/341 495/556/498 497/558/500 395/406/399 
f 496/557/499 344/349/349 405/420/409 498/560/501 
f 20/20/20 35/35/35 305/310/310 21/21/21 
f 24/24/24 335/340/340 259/262/262 25/25/25 
f 28/28/28 283/286/286 396/549/400 29/29/29 
f 340/345/345 314/319/319 496/557/499 341/346/346 
f 401/413/405 498/560/501 36/561/36 402/414/406 
f 341/346/346 496/557/499 498/560/501 401/413/405 
f 20/20/20 19/19/19 33/33/33 402/550/406 
f 490/551/493 181/184/184 180/183/183 491/552/494 
f 492/553/495 254/257/257 26/26/26 25/25/25 
f 28/28/28 27/27/27 458/504/461 493/554/496 
f 494/555/497 463/510/466 22/22/22 21/21/21 
f 340/345/345 311/316/316 181/184/184 490/551/493 
f 24/24/24 23/23/23 325/330/330 495/556/498 
f 497/558/500 387/393/392 30/392/30 29/559/29 
f 493/554/496 458/504/461 468/515/471 499/562/502 
f 491/552/494 180/183/183 254/257/257 492/553/495 
f 495/556/498 325/330/330 387/393/392 497/558/500 
f 143/146/146 16/16/16 15/15/15 144/147/147 
f 145/148/148 280/283/283 279/282/282 146/149/149 
f 147/150/150 380/385/385 384/389/389 148/151/151 
f 149/152/152 333/338/338 332/337/337 150/153/153 
f 242/245/245 331/336/336 386/391/391 243/246/246 
f 276/279/279 381/386/386 380/385/385 147/150/150 
f 146/149/149 279/282/282 278/281/281 299/304/304 
f 309/314/314 301/306/306 16/16/16 143/146/146 
f 150/153/153 332/337/337 331/336/336 242/245/245 
f 148/151/151 384/389/389 383/388/388 371/376/376 
f 372/377/377 393/402/397 333/338/338 149/152/152 
f 428/462/432 434/475/437 280/474/283 145/463/148 
f 144/147/147 15/15/15 18/18/18 439/482/442 
f 299/304/304 278/281/281 441/484/444 446/490/449 
f 439/541/442 18/403/18 393/402/397 372/377/377 
f 371/376/376 383/388/388 434/475/437 428/462/432 
f 174/177/177 300/305/305 500/563/503 501/564/504 
f 300/305/305 249/252/252 502/565/505 500/563/503 
f 249/252/252 248/251/251 503/566/506 502/565/505 
f 248/251/251 166/169/169 504/567/507 503/566/506 
f 166/169/169 165/168/168 505/568/508 504/567/507 
f 165/168/168 440/483/443 506/569/509 505/568/508 
f 440/542/443 376/381/381 507/570/510 506/571/509 
f 376/381/381 169/172/172 508/572/511 507/570/510 
f 169/172/172 168/171/171 509/573/512 508/572/511 
f 168/171/171 252/255/255 510/574/513 509/573/512 
f 252/255/255 251/254/254 511/575/514 510/574/513 
f 251/254/254 277/280/280 512/576/515 511/575/514 
f 277/280/280 172/175/175 513/577/516 512/576/515 
f 172/175/175 171/174/174 514/578/517 513/577/516 
f 171/174/174 378/383/383 515/579/518 514/578/517 
f 378/383/383 430/468/434 516/580/519 515/579/518 
f 430/468/434 175/467/178 517/581/520 516/580/519 
f 175/178/178 174/177/177 501/564/504 517/582/520 
f 501/564/504 500/563/503 518/583/521 519/584/522 
f 500/563/503 502/565/505 520/585/523 518/583/521 
f 502/565/505 503/566/506 521/586/524 520/585/523 
f 503/566/506 504/567/507 522/587/525 521/586/524 
f 504/567/507 505/568/508 523/588/526 522/587/525 
f 505/568/508 506/569/509 524/589/527 523/588/526 
f 506/571/509 507/570/510 525/590/528 524/591/527 
f 507/570/510 508/572/511 526/592/529 525/590/528 
f 508/572/511 509/573/512 527/593/530 526/592/529 
f 509/573/512 510/574/513 528/594/531 527/593/530 
f 510/574/513 511/575/514 529/595/532 528/594/531 
f 511/575/514 512/576/515 530/596/533 529/595/532 
f 512/576/515 513/577/516 531/597/534 530/596/533 
f 513/577/516 514/578/517 532/598/535 531/597/534 
f 514/578/517 515/579/518 533/599/536 532/598/535 
f 515/579/518 516/580/519 534/600/537 533/599/536 
f 516/580/519 517/581/520 535/601/538 534/600/537 
f 517/582/520 501/564/504 519/584/522 535/602/538 
f 519/584/522 518/583/521 536/603/539 
f 518/583/521 520/585/523 536/603/539 
f 520/585/523 521/586/524 536/603/539 
f 521/586/524 522/587/525 536/603/539 
f 522/587/525 523/588/526 536/603/539 
f 523/588/526 524/589/527 536/603/539 
f 524/591/527 525/590/528 536/604/539 
f 525/590/528 526/592/529 536/604/539 
f 526/592/529 527/593/530 536/604/539 
f 527/593/530 528/594/531 536/604/539 
f 531/597/534 532/598/535 536/604/539 
f 532/598/535 533/599/536 536/604/539 
f 533/599/536 534/600/537 536/604/539 
f 534/600/537 535/601/538 536/604/539 
f 535/602/538 519/584/522 536/603/539 
f 106/605/108 537/606/540 538/607/541 14/608/14 
f 11/609/100 539/610/542 539/611/543 11/612/101 
f 103/613/105 540/614/544 541/615/545 104/616/106 
f 11/617/11 542/618/546 539/610/542 11/609/100 
f 11/612/101 539/611/543 543/619/547 14/620/111 
f 104/616/106 541/615/545 544/621/548 114/622/117 
f 111/623/114 545/624/549 546/625/550 
f 106/605/108 547/626/551 537/606/540 
f 103/627/298 540/628/552 540/614/544 103/613/105 
f 111/623/114 546/625/550 548/629/553 114/630/299 
f 106/605/108 549/631/554 547/626/551 
f 111/623/114 550/632/555 545/624/549 
f 537/606/540 551/633/556 552/634/557 538/607/541 
f 539/610/542 553/635/558 539/611/543 
f 540/614/544 554/636/559 541/615/545 
f 542/618/546 553/635/558 539/610/542 
f 539/611/543 553/635/558 552/634/557 543/619/547 
f 541/615/545 554/636/559 555/637/560 544/621/548 
f 545/624/549 556/638/561 546/625/550 
f 547/626/551 551/633/556 537/606/540 
f 540/628/552 554/636/559 540/614/544 
f 546/625/550 556/638/561 555/637/560 548/629/553 
f 549/631/554 551/633/556 547/626/551 
f 550/632/555 556/638/561 545/624/549 
f 13/13/13 154/157/157 106/108/108 14/14/14 
f 108/110/110 100/102/102 11/101/101 14/111/111 
f 109/112/112 161/164/164 270/273/273 110/113/113 
f 113/116/116 105/107/107 104/106/106 114/117/117 
f 222/225/225 217/220/220 216/219/219 223/226/226 
f 225/228/228 219/222/222 218/221/221 226/229/229 
f 271/274/274 269/272/272 102/104/104 110/113/113 
f 114/299/299 103/298/298 294/297/297 295/300/300 
f 223/226/226 216/219/219 100/102/102 108/110/110 
f 324/329/329 323/328/328 219/222/222 225/228/228 
f 324/329/329 157/160/160 373/378/378 329/334/334 
f 109/112/112 101/103/103 361/366/366 362/367/367 
f 391/398/396 429/465/433 154/464/157 13/399/13 
f 423/452/427 422/450/426 105/449/107 113/453/116 
f 295/300/300 294/297/297 217/220/220 222/225/225 
f 226/229/229 218/221/221 269/272/272 271/274/274 
f 329/334/334 373/378/378 429/465/433 391/398/396 
f 362/367/367 361/366/366 422/450/426 423/452/427 
f 538/607/541 542/618/546 11/617/11 14/608/14 
f 543/619/547 549/631/554 106/605/108 14/620/111 
f 544/621/548 550/632/555 111/623/114 114/622/117 
f 548/629/553 540/628/552 103/627/298 114/630/299 
f 552/634/557 553/635/558 542/618/546 538/607/541 
f 552/634/557 551/633/556 549/631/554 543/619/547 
f 555/637/560 556/638/561 550/632/555 544/621/548 
f 555/637/560 554/636/559 540/628/552 548/629/553 
f 529/595/532 530/596/533 531/597/534 536/604/539 528/594/531 
f 557/639/562 558/640/563 559/641/564 560/642/565 
f 561/643/566 562/644/567 563/645/568 564/646/569 
f 196/647/199 199/648/202 565/649/570 566/650/571 
f 192/651/195 260/652/263 567/653/572 568/654/573 
f 260/652/263 451/655/454 569/656/574 567/653/572 
f 262/657/265 266/658/269 570/659/575 571/660/576 
f 265/661/268 204/662/207 572/663/577 573/664/578 
f 204/662/207 207/665/210 574/666/579 572/663/577 
f 563/645/568 558/640/563 557/639/562 564/646/569 
f 266/658/269 265/661/268 573/664/578 570/659/575 
f 207/665/210 196/647/199 566/650/571 574/666/579 
f 568/654/573 575/667/580 576/668/581 577/669/582 
f 567/653/572 578/670/583 575/667/580 568/654/573 
f 571/660/576 557/639/562 560/642/565 579/671/584 
f 570/659/575 564/646/569 557/639/562 571/660/576 
f 572/663/577 562/644/567 561/643/566 573/664/578 
f 574/666/579 563/645/568 562/644/567 572/663/577 
f 573/664/578 561/643/566 564/646/569 570/659/575 
f 566/650/571 558/640/563 563/645/568 574/666/579 
f 576/668/581 575/667/580 578/670/583 580/672/585 
f 450/673/453 192/651/195 568/654/573 577/669/582 
f 451/655/454 263/674/266 579/671/584 569/656/574 
f 576/668/581 559/641/564 565/649/570 577/669/582 
f 580/672/585 578/670/583 567/653/572 569/656/574 
f 559/641/564 576/668/581 580/672/585 560/642/565 
f 199/648/202 450/673/453 577/669/582 565/649/570 
f 560/642/565 580/672/585 569/656/574 579/671/584 
f 263/674/266 262/657/265 571/660/576 579/671/584 
f 559/641/564 558/640/563 566/650/571 565/649/570 
f 581/675/586 582/676/587 583/677/588 584/678/589 
f 180/679/183 183/680/186 585/681/590 586/682/591 
f 230/683/233 272/684/275 587/685/592 588/686/593 
f 272/684/275 487/687/490 589/688/594 587/685/592 
f 254/689/257 180/679/183 586/682/591 590/690/595 
f 583/677/588 591/691/596 592/692/597 584/678/589 
f 183/680/186 466/693/469 593/694/598 585/681/590 
f 255/695/258 254/689/257 590/690/595 594/696/599 
f 469/697/472 255/695/258 594/696/599 595/698/600 
f 591/691/596 596/699/601 597/700/602 592/692/597 
f 466/693/469 486/701/489 598/702/603 593/694/598 
f 487/687/490 469/697/472 595/698/600 589/688/594 
f 596/699/601 599/703/604 600/704/605 597/700/602 
f 486/701/489 230/683/233 588/686/593 598/702/603 
f 585/681/590 583/677/588 582/676/587 586/682/591 
f 587/685/592 600/704/605 599/703/604 588/686/593 
f 589/688/594 597/700/602 600/704/605 587/685/592 
f 586/682/591 582/676/587 581/675/586 590/690/595 
f 593/694/598 591/691/596 583/677/588 585/681/590 
f 590/690/595 581/675/586 584/678/589 594/696/599 
f 594/696/599 584/678/589 592/692/597 595/698/600 
f 598/702/603 596/699/601 591/691/596 593/694/598 
f 595/698/600 592/692/597 597/700/602 589/688/594 
f 588/686/593 599/703/604 596/699/601 598/702/603 
f 601/705/606 602/706/607 603/707/608 604/708/609 
f 306/709/311 444/710/447 605/711/610 606/712/611 
f 444/710/447 445/713/448 607/714/612 605/711/610 
f 447/715/450 448/716/451 608/717/613 609/718/614 
f 448/716/451 307/719/312 610/720/615 608/717/613 
f 605/711/610 611/721/616 612/722/617 606/712/611 
f 609/718/614 613/723/618 614/724/619 607/714/612 
f 608/717/613 615/725/620 613/723/618 609/718/614 
f 606/712/611 612/722/617 616/726/621 610/720/615 
f 603/707/608 617/727/622 618/728/623 604/708/609 
f 445/713/448 447/715/450 609/718/614 607/714/612 
f 307/719/312 306/709/311 606/712/611 610/720/615 
f 603/707/608 602/706/607 611/721/616 614/724/619 
f 604/708/609 618/728/623 615/725/620 616/726/621 
f 611/721/616 602/706/607 601/705/606 612/722/617 
f 613/723/618 617/727/622 603/707/608 614/724/619 
f 615/725/620 618/728/623 617/727/622 613/723/618 
f 612/722/617 601/705/606 604/708/609 616/726/621 
f 611/721/616 605/711/610 607/714/612 614/724/619 
f 615/725/620 608/717/613 610/720/615 616/726/621 
f 619/729/624 620/730/625 621/731/626 622/732/627 
f 623/733/628 624/734/629 625/735/630 626/736/631 
f 303/737/308 442/738/445 627/739/632 628/740/633 
f 442/738/445 443/741/446 629/742/634 627/739/632 
f 468/743/471 467/744/470 630/745/635 631/746/636 
f 467/744/470 464/747/467 632/748/637 630/745/635 
f 464/747/467 463/749/466 633/750/638 632/748/637 
f 463/749/466 494/751/497 634/752/639 633/750/638 
f 627/739/632 635/753/640 636/754/641 628/740/633 
f 631/746/636 637/755/642 638/756/643 639/757/644 
f 630/745/635 640/758/645 637/755/642 631/746/636 
f 632/748/637 641/759/646 640/758/645 630/745/635 
f 633/750/638 642/760/647 641/759/646 632/748/637 
f 628/740/633 636/754/641 643/761/648 644/762/649 
f 621/731/626 645/763/650 646/764/651 622/732/627 
f 443/741/446 499/765/502 639/757/644 629/742/634 
f 304/766/309 303/737/308 628/740/633 644/762/649 
f 621/731/626 620/730/625 635/753/640 647/767/652 
f 622/732/627 646/764/651 648/768/653 643/761/648 
f 494/751/497 304/766/309 644/762/649 634/752/639 
f 645/763/650 621/731/626 647/767/652 638/756/643 
f 645/763/650 625/735/630 624/734/629 646/764/651 
f 499/765/502 468/743/471 631/746/636 639/757/644 
f 646/764/651 624/734/629 642/760/647 648/768/653 
f 635/753/640 620/730/625 619/729/624 636/754/641 
f 637/755/642 625/735/630 645/763/650 638/756/643 
f 640/758/645 626/736/631 625/735/630 637/755/642 
f 641/759/646 623/733/628 626/736/631 640/758/645 
f 642/760/647 624/734/629 623/733/628 641/759/646 
f 636/754/641 619/729/624 622/732/627 643/761/648 
f 635/753/640 627/739/632 629/742/634 647/767/652 
f 648/768/653 634/752/639 644/762/649 643/761/648 
f 647/767/652 629/742/634 639/757/644 638/756/643 
f 642/760/647 633/750/638 634/752/639 648/768/653 
f 649/769/654 650/770/655 651/771/656 652/772/657 
f 653/773/658 654/774/659 655/775/660 656/776/661 
f 657/777/662 658/778/663 659/779/664 660/780/665 
f 661/781/666 662/782/667 663/783/668 664/784/669 
f 664/784/669 663/783/668 665/785/670 666/786/671 
f 665/785/670 652/772/657 651/771/656 666/786/671 
f 237/787/240 236/788/239 667/789/672 668/790/673 
f 236/788/239 446/791/449 669/792/674 667/789/672 
f 441/793/444 433/794/436 670/795/675 671/796/676 
f 433/794/436 432/797/435 672/798/677 670/795/675 
f 432/797/435 382/799/387 673/800/678 672/798/677 
f 382/799/387 381/801/386 674/802/679 673/800/678 
f 381/801/386 276/803/279 675/804/680 674/802/679 
f 275/805/278 241/806/244 676/807/681 677/808/682 
f 241/806/244 243/809/246 678/810/683 676/807/681 
f 386/811/391 385/812/390 679/813/684 680/814/685 
f 385/812/390 435/815/438 681/816/686 679/813/684 
f 435/815/438 302/817/307 682/818/687 681/816/686 
f 302/817/307 301/819/306 683/820/688 682/818/687 
f 301/819/306 309/821/314 684/822/689 683/820/688 
f 655/775/660 650/770/655 649/769/654 656/776/661 
f 659/779/664 662/782/667 661/781/666 660/780/665 
f 446/791/449 441/793/444 671/796/676 669/792/674 
f 276/803/279 275/805/278 677/808/682 675/804/680 
f 243/809/246 386/811/391 680/814/685 678/810/683 
f 309/821/314 237/787/240 668/790/673 684/822/689 
f 667/789/672 654/774/659 653/773/658 668/790/673 
f 669/792/674 655/775/660 654/774/659 667/789/672 
f 670/795/675 651/771/656 650/770/655 671/796/676 
f 672/798/677 666/786/671 651/771/656 670/795/675 
f 673/800/678 664/784/669 666/786/671 672/798/677 
f 674/802/679 661/781/666 664/784/669 673/800/678 
f 675/804/680 660/780/665 661/781/666 674/802/679 
f 676/807/681 658/778/663 657/777/662 677/808/682 
f 678/810/683 659/779/664 658/778/663 676/807/681 
f 679/813/684 663/783/668 662/782/667 680/814/685 
f 681/816/686 665/785/670 663/783/668 679/813/684 
f 682/818/687 652/772/657 665/785/670 681/816/686 
f 683/820/688 649/769/654 652/772/657 682/818/687 
f 684/822/689 656/776/661 649/769/654 683/820/688 
f 671/796/676 650/770/655 655/775/660 669/792/674 
f 677/808/682 657/777/662 660/780/665 675/804/680 
f 680/814/685 662/782/667 659/779/664 678/810/683 
f 668/790/673 653/773/658 656/776/661 684/822/689 
f 38/38/38 49/49/49 54/54/54 39/39/39 
f 42/42/42 55/55/55 58/58/58 43/43/43 
f 46/46/46 59/59/59 62/62/62 47/47/47 
f 38/38/38 34/34/34 37/37/37 50/50/50 
f 190/193/193 442/486/445 303/308/308 191/194/194 
f 194/197/197 185/188/188 184/187/187 195/198/198 
f 261/264/264 257/260/260 44/44/44 43/43/43 
f 46/46/46 45/45/45 282/285/285 286/289/289 
f 191/194/194 303/308/308 40/40/40 39/39/39 
f 316/321/321 313/318/318 185/188/188 194/197/197 
f 42/42/42 41/41/41 334/339/339 343/348/348 
f 316/321/321 315/320/320 349/354/354 345/350/350 
f 404/417/408 394/405/398 48/404/48 47/418/47 
f 406/421/410 410/428/414 51/427/51 50/422/50 
f 286/289/289 282/285/285 442/486/445 190/193/193 
f 195/198/198 184/187/187 257/260/260 261/264/264 
f 343/348/348 334/339/339 394/405/398 404/417/408 
f 345/350/350 349/354/354 410/428/414 406/421/410 
f 117/120/120 128/131/131 127/130/130 118/121/121 
f 119/122/122 132/135/135 131/134/134 120/123/123 
f 121/124/124 136/139/139 135/138/138 122/125/125 
f 125/128/128 140/143/143 139/142/142 126/129/129 
f 228/231/231 235/238/238 234/237/237 229/232/232 
f 232/235/235 239/242/242 238/241/241 233/236/236 
f 273/276/276 274/277/277 136/139/139 121/124/124 
f 120/123/123 131/134/134 297/302/302 296/301/301 
f 229/232/232 234/237/237 128/131/131 117/120/120 
f 126/129/129 139/142/142 239/242/242 232/235/235 
f 122/125/125 135/138/138 367/372/372 364/369/369 
f 366/371/371 369/374/374 140/143/143 125/128/128 
f 425/456/429 426/459/430 132/458/135 119/457/122 
f 118/121/121 127/130/130 437/480/440 436/479/439 
f 296/301/301 297/302/302 235/238/238 228/231/231 
f 233/236/236 238/241/241 274/277/277 273/276/276 
f 436/538/439 437/539/440 369/374/374 366/371/371 
f 364/369/369 367/372/372 426/459/430 425/456/429 
# 673 polygons - 27 triangles

